# Wavefront OBJ file
# Exported by Misfit Model 3D 1.3.7
# Sun Jul 10 15:08:10 2016

mtllib models/crate/crate.mtl

# 110 Vertices
v 0.985623 -0.998875 0.528424
v 1.001383 -0.998211 -1.471514
v 0.999038 0.782731 -1.251949
v 0.987788 0.782257 0.175572
v 0.999535 -0.644833 -1.252419
v 0.986775 0.647748 0.309988
v 0.987273 -0.779817 0.309518
v 0.998521 -0.779344 -1.118003
v 0.999582 -0.779299 -1.252464
v 0.986728 0.782212 0.310033
v 0.896169 0.782695 -1.25276
v 0.884919 0.782222 0.174761
v 0.896665 -0.64487 -1.25323
v 0.883906 0.647712 0.309178
v 0.884403 -0.779854 0.308708
v 0.895652 -0.779379 -1.118814
v -1.014315 -0.999567 0.512663
v -0.998553 -0.998902 -1.487275
v -0.999251 1.001097 -1.486616
v -1.000899 0.78204 -1.267711
v -1.01215 0.781566 0.159811
v -1.000402 -0.645526 -1.268181
v -1.013162 0.647056 0.294227
v -1.012665 -0.780509 0.293756
v -1.001415 -0.780035 -1.133764
v -1.000355 -0.77999 -1.268225
v -1.013209 0.781521 0.294271
v -0.89803 0.782075 -1.2669
v -0.90928 0.781601 0.160621
v -0.897533 -0.645489 -1.26737
v -0.910293 0.647091 0.295038
v -0.909796 -0.780473 0.294568
v -0.898546 -0.78 -1.132954
v 0.78068 -0.99836 -1.254262
v 0.768371 -0.998878 0.30772
v -0.793612 -0.999419 0.29541
v -0.781301 -0.998899 -1.266572
v 0.768335 -0.896005 0.307754
v 0.780644 -0.895486 -1.254228
v -0.793648 -0.896545 0.295444
v -0.781337 -0.896026 -1.266537
v -0.781998 1.0011 -1.265913
v -0.794308 1.000582 0.296069
v 1.000687 1.001788 -1.470856
v -1.015012 1.000433 0.513321
v 0.767675 1.001121 0.308378
v 0.779983 1.001641 -1.253603
v -0.794272 0.897709 0.296035
v -0.781962 0.898227 -1.265947
v 0.767711 0.898248 0.308344
v 0.780019 0.898766 -1.253637
v 0.001067 0.001443 -1.479065
v 0.782289 -0.662365 -1.473129
v 0.781826 0.665791 -1.472692
v 0.140359 0.001491 -1.477967
v -0.662719 -0.779802 -1.484556
v 0.665396 -0.779343 -1.474089
v 0.001115 -0.137854 -1.479111
v 0.664852 0.782688 -1.473574
v -0.663263 0.782229 -1.484041
v 0.001018 0.14074 -1.479019
v -0.780156 0.665251 -1.485001
v -0.779693 -0.662905 -1.485439
v -0.138226 0.001395 -1.480163
v 0.781786 0.782729 -1.472653
v 0.781016 0.665758 -1.369822
v 0.781478 -0.6624 -1.370259
v -0.780196 0.782189 -1.484963
v -0.779652 -0.779843 -1.485477
v 0.984925 1.001125 0.529083
v -0.663529 -0.779836 -1.381686
v 0.782329 -0.779302 -1.473168
v 0.139549 0.001458 -1.375098
v 0.664586 -0.779377 -1.371219
v 0.000304 -0.137887 -1.376241
v 0.664041 0.782654 -1.370705
v -0.664073 0.782195 -1.381171
v 0.000208 0.140705 -1.376149
v -0.780966 0.665217 -1.382132
v -0.780503 -0.662939 -1.382569
v -0.139036 0.001361 -1.377293
v -0.795958 0.781524 0.514976
v -0.014694 0.000779 0.520874
v -0.795453 -0.663569 0.5145
v -0.795916 0.664587 0.514938
v -0.153986 0.000731 0.519776
v 0.649635 -0.780007 0.52585
v -0.67848 -0.780466 0.515383
v -0.014645 -0.138518 0.520828
v -0.679023 0.781565 0.515897
v 0.649091 0.782024 0.526365
v -0.014743 0.140076 0.52092
v 0.766065 0.665127 0.527247
v 0.766527 -0.66303 0.52681
v 0.124598 0.000828 0.521971
v -0.795106 0.664622 0.412067
v -0.794643 -0.663535 0.41163
v 0.766024 0.782065 0.527285
v 0.766569 -0.779967 0.526771
v 0.650446 -0.779973 0.422979
v -0.795413 -0.780506 0.514462
v -0.153176 0.000765 0.416906
v -0.677669 -0.780432 0.412513
v -0.013835 -0.138483 0.417957
v -0.678213 0.7816 0.413027
v 0.649902 0.782058 0.423493
v -0.013932 0.14011 0.418049
v 0.766876 0.665161 0.424377
v 0.767339 -0.662995 0.42394
v 0.125409 0.000861 0.419101

# 648 Texture Coordinates
vt 0.875 0.5748
vt 0.9068 0.5748
vt 0.5373 0.9443
vt 0.875 0.5748
vt 0.5373 0.9443
vt 0.5373 0.9125
vt 0.5691 0.9443
vt 0.5373 0.9443
vt 0.9068 0.5748
vt 0.5691 0.9443
vt 0.9068 0.5748
vt 0.9068 0.6066
vt 0.5841 0.5141
vt 0.585 0.2302
vt 0.6139 0.2303
vt 0.5841 0.5141
vt 0.6139 0.2303
vt 0.6131 0.5142
vt 0.9643 0.0371
vt 0.9652 0.3211
vt 0.9941 0.321
vt 0.9643 0.0371
vt 0.9941 0.321
vt 0.9932 0.0371
vt 0.5691 0.9443
vt 0.4855 0.9961
vt 0.5373 0.9443
vt 0.4855 0.9961
vt 0.5691 0.9443
vt 0.9068 0.9443
vt 0.4855 0.9961
vt 0.9068 0.9443
vt 0.9586 0.9961
vt 0.4855 0.9961
vt 0.5373 0.9125
vt 0.5373 0.9443
vt 0.5691 0.9443
vt 0.9068 0.6066
vt 0.9068 0.9443
vt 0.5373 0.9125
vt 0.5373 0.5748
vt 0.875 0.5748
vt 0.9652 0.3211
vt 0.966 0.6051
vt 0.995 0.605
vt 0.9652 0.3211
vt 0.995 0.605
vt 0.9941 0.321
vt 0.5777 0.5142
vt 0.5768 0.2303
vt 0.5479 0.2303
vt 0.5777 0.5142
vt 0.5479 0.2303
vt 0.5488 0.5143
vt 0.5098 0.5144
vt 0.5113 0.0368
vt 0.4869 0.0367
vt 0.5098 0.5144
vt 0.4869 0.0367
vt 0.4855 0.5143
vt 0.5423 0.5143
vt 0.5408 0.0367
vt 0.5165 0.0368
vt 0.5423 0.5143
vt 0.5165 0.0368
vt 0.518 0.5144
vt 0.875 0.5748
vt 0.5373 0.9125
vt 0.5373 0.9443
vt 0.875 0.5748
vt 0.5373 0.9443
vt 0.9068 0.5748
vt 0.5691 0.9443
vt 0.9068 0.6066
vt 0.9068 0.5748
vt 0.5691 0.9443
vt 0.9068 0.5748
vt 0.5373 0.9443
vt 0.5841 0.5142
vt 0.6131 0.5143
vt 0.6139 0.2303
vt 0.5841 0.5142
vt 0.6139 0.2303
vt 0.585 0.2303
vt 0.966 0.6051
vt 0.995 0.605
vt 0.9941 0.321
vt 0.966 0.6051
vt 0.9941 0.321
vt 0.9652 0.3211
vt 0.5691 0.9443
vt 0.5373 0.9443
vt 0.4855 0.9961
vt 0.4855 0.523
vt 0.4855 0.9961
vt 0.5373 0.9125
vt 0.4855 0.523
vt 0.5373 0.9125
vt 0.5373 0.5748
vt 0.4855 0.9961
vt 0.9586 0.9961
vt 0.9068 0.9443
vt 0.4855 0.9961
vt 0.9068 0.9443
vt 0.5691 0.9443
vt 0.4855 0.9961
vt 0.5373 0.9443
vt 0.5373 0.9125
vt 0.5691 0.9443
vt 0.9068 0.9443
vt 0.9068 0.6066
vt 0.5373 0.9125
vt 0.875 0.5748
vt 0.5373 0.5748
vt 0.9652 0.3211
vt 0.9941 0.321
vt 0.9932 0.0371
vt 0.9652 0.3211
vt 0.9932 0.0371
vt 0.9643 0.0371
vt 0.5777 0.5142
vt 0.5488 0.5143
vt 0.5479 0.2303
vt 0.5777 0.5142
vt 0.5479 0.2303
vt 0.5768 0.2303
vt 0.5098 0.5144
vt 0.4855 0.5143
vt 0.4869 0.0367
vt 0.5098 0.5144
vt 0.4869 0.0367
vt 0.5113 0.0368
vt 0.5423 0.5143
vt 0.518 0.5144
vt 0.5165 0.0368
vt 0.5423 0.5143
vt 0.5165 0.0368
vt 0.5408 0.0367
vt 0.0034 0.0412
vt 0.0552 0.093
vt 0.0552 0.4625
vt 0.0034 0.0412
vt 0.0552 0.4625
vt 0.0034 0.5143
vt 0.0552 0.4625
vt 0.0552 0.093
vt 0.4247 0.093
vt 0.0552 0.4625
vt 0.4247 0.093
vt 0.4247 0.4625
vt 0.8946 0.4065
vt 0.8703 0.4064
vt 0.8714 0.0369
vt 0.8946 0.4065
vt 0.8714 0.0369
vt 0.8958 0.037
vt 0.9272 0.4765
vt 0.9477 0.4765
vt 0.949 0.0371
vt 0.9272 0.4765
vt 0.949 0.0371
vt 0.9286 0.0371
vt 0.0552 0.4625
vt 0.0552 0.093
vt 0.4247 0.093
vt 0.0552 0.4625
vt 0.4247 0.093
vt 0.4247 0.4625
vt 0.9002 0.4764
vt 0.9207 0.4765
vt 0.922 0.0371
vt 0.9002 0.4764
vt 0.922 0.0371
vt 0.9016 0.037
vt 0.8714 0.0369
vt 0.8958 0.037
vt 0.8946 0.4065
vt 0.8714 0.0369
vt 0.8946 0.4065
vt 0.8703 0.4064
vt 0.8407 0.4064
vt 0.865 0.4064
vt 0.8661 0.0369
vt 0.8407 0.4064
vt 0.8661 0.0369
vt 0.8418 0.0369
vt 0.7311 0.0369
vt 0.7554 0.0368
vt 0.7564 0.351
vt 0.7311 0.0369
vt 0.7564 0.351
vt 0.732 0.3511
vt 0.4247 0.6025
vt 0.4247 0.5748
vt 0.4765 0.523
vt 0.3971 0.9443
vt 0.4247 0.9443
vt 0.4765 0.9961
vt 0.6895 0.2303
vt 0.7182 0.2303
vt 0.7188 0.4155
vt 0.6895 0.2303
vt 0.7188 0.4155
vt 0.6901 0.4156
vt 0.4765 0.9961
vt 0.0034 0.9961
vt 0.0829 0.9443
vt 0.4765 0.9961
vt 0.0829 0.9443
vt 0.3971 0.9443
vt 0.4765 0.9961
vt 0.4247 0.9443
vt 0.4247 0.9166
vt 0.0552 0.9166
vt 0.0552 0.9443
vt 0.0034 0.9961
vt 0.6544 0.2304
vt 0.6836 0.2303
vt 0.6841 0.4124
vt 0.6544 0.2304
vt 0.6841 0.4124
vt 0.6549 0.4125
vt 0.4765 0.523
vt 0.4247 0.5748
vt 0.3971 0.5748
vt 0.6136 0.2188
vt 0.5844 0.2189
vt 0.5838 0.0368
vt 0.6136 0.2188
vt 0.5838 0.0368
vt 0.613 0.0367
vt 0.0034 0.9961
vt 0.0552 0.9443
vt 0.0829 0.9443
vt 0.0829 0.5748
vt 0.24 0.7266
vt 0.24 0.7596
vt 0.0829 0.5748
vt 0.24 0.7596
vt 0.0552 0.5748
vt 0.207 0.7596
vt 0.0552 0.6025
vt 0.0552 0.5748
vt 0.207 0.7596
vt 0.0552 0.5748
vt 0.24 0.7596
vt 0.0552 0.9166
vt 0.207 0.7596
vt 0.24 0.7596
vt 0.0552 0.9166
vt 0.24 0.7596
vt 0.0552 0.9443
vt 0.24 0.7925
vt 0.0829 0.9443
vt 0.0552 0.9443
vt 0.24 0.7925
vt 0.0552 0.9443
vt 0.24 0.7596
vt 0.3971 0.9443
vt 0.24 0.7925
vt 0.24 0.7596
vt 0.3971 0.9443
vt 0.24 0.7596
vt 0.4247 0.9443
vt 0.2729 0.7596
vt 0.4247 0.9166
vt 0.4247 0.9443
vt 0.2729 0.7596
vt 0.4247 0.9443
vt 0.24 0.7596
vt 0.24 0.7266
vt 0.3971 0.5748
vt 0.4247 0.5748
vt 0.24 0.7266
vt 0.4247 0.5748
vt 0.24 0.7596
vt 0.4247 0.6025
vt 0.2729 0.7596
vt 0.24 0.7596
vt 0.4247 0.6025
vt 0.24 0.7596
vt 0.4247 0.5748
vt 0.7564 0.351
vt 0.7554 0.0368
vt 0.7311 0.0369
vt 0.7564 0.351
vt 0.7311 0.0369
vt 0.732 0.3511
vt 0.4247 0.9166
vt 0.2729 0.7596
vt 0.4247 0.6025
vt 0.0829 0.9443
vt 0.24 0.7925
vt 0.3971 0.9443
vt 0.3971 0.5748
vt 0.24 0.7266
vt 0.0829 0.5748
vt 0.0552 0.6025
vt 0.207 0.7596
vt 0.0552 0.9166
vt 0.8094 0.4104
vt 0.7889 0.4104
vt 0.7901 0.0367
vt 0.8094 0.4104
vt 0.7901 0.0367
vt 0.8105 0.0368
vt 0.8359 0.4105
vt 0.8154 0.4104
vt 0.8165 0.0368
vt 0.8359 0.4105
vt 0.8165 0.0368
vt 0.837 0.0369
vt 0.7857 0.3509
vt 0.7613 0.351
vt 0.7604 0.0368
vt 0.7857 0.3509
vt 0.7604 0.0368
vt 0.7847 0.0367
vt 0.5766 0.2221
vt 0.5479 0.222
vt 0.5485 0.0367
vt 0.5766 0.2221
vt 0.5485 0.0367
vt 0.5772 0.0368
vt 0.6193 0.2303
vt 0.6485 0.2304
vt 0.6479 0.4125
vt 0.6193 0.2303
vt 0.6479 0.4125
vt 0.6187 0.4124
vt 0.685 0.219
vt 0.6558 0.2189
vt 0.6564 0.0368
vt 0.685 0.219
vt 0.6564 0.0368
vt 0.6855 0.0369
vt 0.6943 0.0369
vt 0.723 0.0368
vt 0.7235 0.2221
vt 0.6943 0.0369
vt 0.7235 0.2221
vt 0.6948 0.2222
vt 0.648 0.2221
vt 0.6193 0.222
vt 0.6198 0.0367
vt 0.648 0.2221
vt 0.6198 0.0367
vt 0.6485 0.0368
vt 0.7847 0.0367
vt 0.7604 0.0368
vt 0.7613 0.351
vt 0.7847 0.0367
vt 0.7613 0.351
vt 0.7857 0.3509
vt 0.5772 0.0368
vt 0.5485 0.0367
vt 0.5479 0.222
vt 0.5772 0.0368
vt 0.5479 0.222
vt 0.5766 0.2221
vt 0.6855 0.0369
vt 0.6564 0.0368
vt 0.6558 0.2189
vt 0.6855 0.0369
vt 0.6558 0.2189
vt 0.685 0.219
vt 0.3971 0.5748
vt 0.4247 0.5748
vt 0.4765 0.523
vt 0.6187 0.4124
vt 0.6479 0.4125
vt 0.6485 0.2304
vt 0.6187 0.4124
vt 0.6485 0.2304
vt 0.6193 0.2303
vt 0.4765 0.523
vt 0.4247 0.5748
vt 0.4247 0.6025
vt 0.3971 0.5748
vt 0.24 0.7266
vt 0.24 0.7596
vt 0.3971 0.5748
vt 0.24 0.7596
vt 0.4247 0.5748
vt 0.2729 0.7596
vt 0.4247 0.6025
vt 0.4247 0.5748
vt 0.2729 0.7596
vt 0.4247 0.5748
vt 0.24 0.7596
vt 0.4247 0.9166
vt 0.2729 0.7596
vt 0.24 0.7596
vt 0.4247 0.9166
vt 0.24 0.7596
vt 0.4247 0.9443
vt 0.24 0.7925
vt 0.3971 0.9443
vt 0.4247 0.9443
vt 0.24 0.7925
vt 0.4247 0.9443
vt 0.24 0.7596
vt 0.0829 0.9443
vt 0.24 0.7925
vt 0.24 0.7596
vt 0.0829 0.9443
vt 0.24 0.7596
vt 0.0552 0.9443
vt 0.207 0.7596
vt 0.0552 0.9166
vt 0.0552 0.9443
vt 0.207 0.7596
vt 0.0552 0.9443
vt 0.24 0.7596
vt 0.0552 0.9166
vt 0.207 0.7596
vt 0.0552 0.6025
vt 0.3971 0.9443
vt 0.24 0.7925
vt 0.0829 0.9443
vt 0.0829 0.5748
vt 0.24 0.7266
vt 0.3971 0.5748
vt 0.4247 0.6025
vt 0.2729 0.7596
vt 0.4247 0.9166
vt 0.8105 0.0368
vt 0.7901 0.0367
vt 0.7889 0.4104
vt 0.8105 0.0368
vt 0.7889 0.4104
vt 0.8094 0.4104
vt 0.837 0.0369
vt 0.8165 0.0368
vt 0.8154 0.4104
vt 0.837 0.0369
vt 0.8154 0.4104
vt 0.8359 0.4105
vt 0.6901 0.4156
vt 0.7188 0.4155
vt 0.7182 0.2303
vt 0.6901 0.4156
vt 0.7182 0.2303
vt 0.6895 0.2303
vt 0.613 0.0367
vt 0.5838 0.0368
vt 0.5844 0.2189
vt 0.613 0.0367
vt 0.5844 0.2189
vt 0.6136 0.2188
vt 0.6549 0.4125
vt 0.6841 0.4124
vt 0.6836 0.2303
vt 0.6549 0.4125
vt 0.6836 0.2303
vt 0.6544 0.2304
vt 0.6485 0.0368
vt 0.6198 0.0367
vt 0.6193 0.222
vt 0.6485 0.0368
vt 0.6193 0.222
vt 0.648 0.2221
vt 0.6948 0.2222
vt 0.7235 0.2221
vt 0.723 0.0368
vt 0.6948 0.2222
vt 0.723 0.0368
vt 0.6943 0.0369
vt 0.9586 0.523
vt 0.875 0.5748
vt 0.5373 0.5748
vt 0.9586 0.523
vt 0.5373 0.5748
vt 0.4855 0.523
vt 0.4855 0.523
vt 0.5373 0.5748
vt 0.5373 0.9125
vt 0.4855 0.523
vt 0.5373 0.9125
vt 0.4855 0.9961
vt 0.9586 0.9961
vt 0.9068 0.9443
vt 0.9068 0.6066
vt 0.9586 0.9961
vt 0.9068 0.6066
vt 0.9586 0.523
vt 0.9068 0.6066
vt 0.9068 0.5748
vt 0.9586 0.523
vt 0.9586 0.523
vt 0.9068 0.5748
vt 0.875 0.5748
vt 0.9586 0.523
vt 0.4855 0.523
vt 0.5373 0.5748
vt 0.9586 0.523
vt 0.5373 0.5748
vt 0.875 0.5748
vt 0.9586 0.9961
vt 0.9586 0.523
vt 0.9068 0.6066
vt 0.9586 0.9961
vt 0.9068 0.6066
vt 0.9068 0.9443
vt 0.9068 0.6066
vt 0.9586 0.523
vt 0.9068 0.5748
vt 0.9586 0.523
vt 0.875 0.5748
vt 0.9068 0.5748
vt 0.9286 0.0371
vt 0.949 0.0371
vt 0.9477 0.4765
vt 0.9286 0.0371
vt 0.9477 0.4765
vt 0.9272 0.4765
vt 0.0034 0.5143
vt 0.0552 0.4625
vt 0.4247 0.4625
vt 0.0034 0.5143
vt 0.4247 0.4625
vt 0.4765 0.5143
vt 0.4765 0.0412
vt 0.4247 0.093
vt 0.0552 0.093
vt 0.4765 0.0412
vt 0.0552 0.093
vt 0.0034 0.0412
vt 0.4765 0.5143
vt 0.4247 0.4625
vt 0.4247 0.093
vt 0.4765 0.5143
vt 0.4247 0.093
vt 0.4765 0.0412
vt 0.922 0.0371
vt 0.9016 0.037
vt 0.9002 0.4764
vt 0.922 0.0371
vt 0.9002 0.4764
vt 0.9207 0.4765
vt 0.8418 0.0369
vt 0.8661 0.0369
vt 0.865 0.4064
vt 0.8418 0.0369
vt 0.865 0.4064
vt 0.8407 0.4064
vt 0.4765 0.5143
vt 0.4247 0.4625
vt 0.0552 0.4625
vt 0.4765 0.5143
vt 0.0552 0.4625
vt 0.0034 0.5143
vt 0.0034 0.0412
vt 0.0552 0.093
vt 0.4247 0.093
vt 0.0034 0.0412
vt 0.4247 0.093
vt 0.4765 0.0412
vt 0.0034 0.5143
vt 0.0552 0.4625
vt 0.0552 0.093
vt 0.0034 0.5143
vt 0.0552 0.093
vt 0.0034 0.0412
vt 0.4765 0.0412
vt 0.4247 0.093
vt 0.4247 0.4625
vt 0.4765 0.0412
vt 0.4247 0.4625
vt 0.4765 0.5143
vt 0.4247 0.9166
vt 0.4247 0.6025
vt 0.4765 0.523
vt 0.4247 0.9166
vt 0.4765 0.523
vt 0.4765 0.9961
vt 0.0034 0.523
vt 0.4765 0.523
vt 0.3971 0.5748
vt 0.0034 0.523
vt 0.3971 0.5748
vt 0.0829 0.5748
vt 0.0829 0.5748
vt 0.0552 0.5748
vt 0.0034 0.523
vt 0.0034 0.9961
vt 0.0034 0.523
vt 0.0552 0.6025
vt 0.0034 0.9961
vt 0.0552 0.6025
vt 0.0552 0.9166
vt 0.0034 0.523
vt 0.0552 0.5748
vt 0.0552 0.6025
vt 0.0034 0.523
vt 0.0552 0.6025
vt 0.0552 0.5748
vt 0.0829 0.9443
vt 0.0552 0.9443
vt 0.0034 0.9961
vt 0.0034 0.9961
vt 0.4765 0.9961
vt 0.3971 0.9443
vt 0.0034 0.9961
vt 0.3971 0.9443
vt 0.0829 0.9443
vt 0.0034 0.9961
vt 0.0552 0.9443
vt 0.0552 0.9166
vt 0.4247 0.9166
vt 0.4247 0.9443
vt 0.4765 0.9961
vt 0.4765 0.523
vt 0.0034 0.523
vt 0.0829 0.5748
vt 0.4765 0.523
vt 0.0829 0.5748
vt 0.3971 0.5748
vt 0.0034 0.523
vt 0.0552 0.5748
vt 0.0829 0.5748
vt 0.4765 0.9961
vt 0.4765 0.523
vt 0.4247 0.6025
vt 0.4765 0.9961
vt 0.4247 0.6025
vt 0.4247 0.9166
vt 0.4765 0.9961
vt 0.4247 0.9443
vt 0.3971 0.9443
vt 0.24 0.7266
vt 0.0829 0.5748
vt 0.0552 0.5748
vt 0.24 0.7266
vt 0.0552 0.5748
vt 0.24 0.7596
vt 0.0552 0.6025
vt 0.207 0.7596
vt 0.24 0.7596
vt 0.0552 0.6025
vt 0.24 0.7596
vt 0.0552 0.5748
vt 0.0552 0.9166
vt 0.0552 0.6025
vt 0.0034 0.523
vt 0.0552 0.9166
vt 0.0034 0.523
vt 0.0034 0.9961

# 648 Vertex Normals
vn 0.999899 0.011855 0.00788
vn 0.999899 0.011852 0.007883
vn 0.999899 0.011848 0.007883
vn 0.999899 0.011855 0.00788
vn 0.999899 0.011848 0.007883
vn 0.999899 0.011851 0.007879
vn 0.999899 0.011848 0.007884
vn 0.999899 0.011848 0.007883
vn 0.999899 0.011852 0.007883
vn 0.999899 0.011848 0.007884
vn 0.999899 0.011852 0.007883
vn 0.999899 0.011852 0.007884
vn -0.007879 -0.000423 0.999969
vn -0.00788 -0.000423 0.999969
vn -0.007879 -0.000423 0.999969
vn -0.007879 -0.000423 0.999969
vn -0.007879 -0.000423 0.999969
vn -0.007879 -0.000423 0.999969
vn 0.007869 0.000423 -0.999969
vn 0.007869 0.000423 -0.999969
vn 0.007869 0.000423 -0.999969
vn 0.007869 0.000423 -0.999969
vn 0.007869 0.000423 -0.999969
vn 0.007869 0.000423 -0.999969
vn 0.999899 0.011848 0.007884
vn 0.999899 0.01185 0.00788
vn 0.999899 0.011848 0.007883
vn 0.999899 0.01185 0.00788
vn 0.999899 0.011848 0.007884
vn 0.999899 0.011852 0.007881
vn 0.999899 0.01185 0.00788
vn 0.999899 0.011852 0.007881
vn 0.999899 0.011851 0.007883
vn 0.999899 0.01185 0.00788
vn 0.999899 0.011851 0.007879
vn 0.999899 0.011848 0.007883
vn 0.999899 0.011851 0.00788
vn 0.999899 0.011851 0.00788
vn 0.999899 0.011851 0.00788
vn 0.999899 0.011851 0.007881
vn 0.999899 0.011851 0.007881
vn 0.999899 0.011851 0.007881
vn -0.011857 0.99993 0.000329
vn -0.011853 0.99993 0.000329
vn -0.011857 0.99993 0.000329
vn -0.011857 0.99993 0.000329
vn -0.011857 0.99993 0.000329
vn -0.011862 0.99993 0.00033
vn 0.011851 -0.99993 -0.000329
vn 0.01185 -0.99993 -0.000329
vn 0.011851 -0.99993 -0.000329
vn 0.011851 -0.99993 -0.000329
vn 0.011851 -0.99993 -0.000329
vn 0.011853 -0.99993 -0.000329
vn -0.002813 0.707356 -0.706852
vn -0.002817 0.707356 -0.706852
vn -0.002813 0.707356 -0.706852
vn -0.002813 0.707356 -0.706852
vn -0.002813 0.707356 -0.706852
vn -0.002809 0.707356 -0.706852
vn 0.002817 -0.707356 0.706852
vn 0.002823 -0.707355 0.706852
vn 0.002817 -0.707356 0.706852
vn 0.002817 -0.707356 0.706852
vn 0.002817 -0.707356 0.706852
vn 0.00281 -0.707356 0.706852
vn -0.999899 -0.011855 -0.00788
vn -0.999899 -0.011852 -0.00788
vn -0.999899 -0.011852 -0.007881
vn -0.999899 -0.011855 -0.00788
vn -0.999899 -0.011852 -0.007881
vn -0.999899 -0.011853 -0.007881
vn -0.999899 -0.011852 -0.00788
vn -0.999899 -0.011852 -0.007884
vn -0.999899 -0.011853 -0.007881
vn -0.999899 -0.011852 -0.00788
vn -0.999899 -0.011853 -0.007881
vn -0.999899 -0.011852 -0.007881
vn -0.007879 -0.000423 0.999969
vn -0.007879 -0.000423 0.999969
vn -0.007879 -0.000423 0.999969
vn -0.007879 -0.000423 0.999969
vn -0.007879 -0.000423 0.999969
vn -0.00788 -0.000423 0.999969
vn 0.007884 0.000423 -0.999969
vn 0.007879 0.000423 -0.999969
vn 0.007884 0.000423 -0.999969
vn 0.007884 0.000423 -0.999969
vn 0.007884 0.000423 -0.999969
vn 0.007889 0.000423 -0.999969
vn -0.999899 -0.011852 -0.00788
vn -0.999899 -0.011852 -0.007881
vn -0.999899 -0.011852 -0.007881
vn -0.999899 -0.011853 -0.00788
vn -0.999899 -0.011852 -0.007881
vn -0.999899 -0.011852 -0.00788
vn -0.999899 -0.011853 -0.00788
vn -0.999899 -0.011852 -0.00788
vn -0.999899 -0.011855 -0.00788
vn -0.999899 -0.011852 -0.007881
vn -0.999899 -0.011851 -0.007883
vn -0.999899 -0.011851 -0.007881
vn -0.999899 -0.011852 -0.007881
vn -0.999899 -0.011851 -0.007881
vn -0.999899 -0.011852 -0.00788
vn -0.999899 -0.011852 -0.007881
vn -0.999899 -0.011852 -0.007881
vn -0.999899 -0.011852 -0.00788
vn -0.999899 -0.011852 -0.007881
vn -0.999899 -0.011852 -0.007881
vn -0.999899 -0.011852 -0.007881
vn -0.999899 -0.011852 -0.007881
vn -0.999899 -0.011852 -0.007881
vn -0.999899 -0.011852 -0.007881
vn -0.011858 0.99993 0.000329
vn -0.011862 0.99993 0.000329
vn -0.011858 0.99993 0.000329
vn -0.011858 0.99993 0.000329
vn -0.011858 0.99993 0.000329
vn -0.011853 0.99993 0.00033
vn 0.011851 -0.99993 -0.000329
vn 0.011853 -0.99993 -0.000329
vn 0.011851 -0.99993 -0.000329
vn 0.011851 -0.99993 -0.000329
vn 0.011851 -0.99993 -0.000329
vn 0.01185 -0.99993 -0.000329
vn -0.002816 0.707356 -0.706852
vn -0.002816 0.707356 -0.706852
vn -0.002816 0.707356 -0.706852
vn -0.002816 0.707356 -0.706852
vn -0.002816 0.707356 -0.706852
vn -0.002817 0.707356 -0.706852
vn 0.002814 -0.707356 0.706852
vn 0.002817 -0.707356 0.706851
vn 0.002814 -0.707356 0.706852
vn 0.002814 -0.707356 0.706852
vn 0.002814 -0.707356 0.706852
vn 0.00281 -0.707356 0.706852
vn 0.011855 -0.99993 -0.000329
vn 0.011855 -0.99993 -0.000329
vn 0.011855 -0.99993 -0.00033
vn 0.011855 -0.99993 -0.000329
vn 0.011855 -0.99993 -0.00033
vn 0.011855 -0.99993 -0.000329
vn 0.011855 -0.99993 -0.000329
vn 0.011854 -0.99993 -0.00033
vn 0.011855 -0.99993 -0.000329
vn 0.011855 -0.99993 -0.000329
vn 0.011855 -0.99993 -0.000329
vn 0.011855 -0.99993 -0.000329
vn 0.999899 0.011856 0.007881
vn 0.999899 0.011856 0.007881
vn 0.999899 0.011856 0.007881
vn 0.999899 0.011856 0.007881
vn 0.999899 0.011856 0.007881
vn 0.999899 0.011856 0.007881
vn 0.007876 0.000424 -0.999969
vn 0.007876 0.000424 -0.999969
vn 0.007876 0.000424 -0.999969
vn 0.007876 0.000424 -0.999969
vn 0.007876 0.000424 -0.999969
vn 0.007876 0.000424 -0.999969
vn -0.011854 0.99993 0.000329
vn -0.011854 0.99993 0.000329
vn -0.011854 0.99993 0.000329
vn -0.011854 0.99993 0.000329
vn -0.011854 0.99993 0.000329
vn -0.011854 0.99993 0.000329
vn -0.007876 -0.000424 0.999969
vn -0.007876 -0.000424 0.999969
vn -0.007876 -0.000424 0.999969
vn -0.007876 -0.000424 0.999969
vn -0.007876 -0.000424 0.999969
vn -0.007876 -0.000424 0.999969
vn 0.999899 0.011856 0.007881
vn 0.999899 0.011856 0.007881
vn 0.999899 0.011856 0.007881
vn 0.999899 0.011856 0.007881
vn 0.999899 0.011856 0.007881
vn 0.999899 0.011856 0.007881
vn -0.999899 -0.011851 -0.00788
vn -0.999899 -0.011846 -0.007879
vn -0.999899 -0.011851 -0.00788
vn -0.999899 -0.011851 -0.00788
vn -0.999899 -0.011851 -0.00788
vn -0.999899 -0.011856 -0.00788
vn 0.999899 0.011852 0.007879
vn 0.999899 0.011852 0.007878
vn 0.999899 0.011852 0.007879
vn 0.999899 0.011852 0.007879
vn 0.999899 0.011852 0.007879
vn 0.999899 0.011852 0.007879
vn 0.007873 0.000424 -0.999969
vn 0.007872 0.000425 -0.999969
vn 0.007873 0.000423 -0.999969
vn 0.007874 0.000421 -0.999969
vn 0.007876 0.000423 -0.999969
vn 0.007876 0.000422 -0.999969
vn 0.948109 0.317856 0.007601
vn 0.955378 -0.295294 0.0074
vn 0.710799 0.703371 0.005895
vn 0.948109 0.317856 0.007601
vn 0.710799 0.703371 0.005895
vn 0.710799 0.703371 0.005898
vn 0.007876 0.000422 -0.999969
vn 0.007876 0.000423 -0.999969
vn 0.007874 0.000426 -0.999969
vn 0.007876 0.000422 -0.999969
vn 0.007874 0.000426 -0.999969
vn 0.007874 0.000421 -0.999969
vn 0.007876 0.000422 -0.999969
vn 0.007876 0.000423 -0.999969
vn 0.007878 0.000425 -0.999969
vn 0.007878 0.000421 -0.999969
vn 0.007876 0.000424 -0.999969
vn 0.007876 0.000423 -0.999969
vn 0.31785 -0.948139 0.002106
vn -0.295282 -0.955406 -0.002728
vn 0.703352 -0.710823 0.005244
vn 0.31785 -0.948139 0.002106
vn 0.703352 -0.710823 0.005244
vn 0.703351 -0.710823 0.005241
vn 0.007873 0.000423 -0.999969
vn 0.007872 0.000425 -0.999969
vn 0.007874 0.000423 -0.999969
vn -0.31785 0.948139 -0.002103
vn 0.295282 0.955406 0.00273
vn -0.703352 0.710823 -0.00524
vn -0.31785 0.948139 -0.002103
vn -0.703352 0.710823 -0.00524
vn -0.703351 0.710823 -0.005246
vn 0.007876 0.000423 -0.999969
vn 0.007876 0.000424 -0.999969
vn 0.007874 0.000426 -0.999969
vn 0.007879 0.000426 -0.999969
vn 0.007875 0.000424 -0.999969
vn 0.007877 0.000423 -0.999969
vn 0.007879 0.000426 -0.999969
vn 0.007877 0.000423 -0.999969
vn 0.007876 0.000423 -0.999969
vn 0.007876 0.00042 -0.999969
vn 0.007872 0.00042 -0.999969
vn 0.007876 0.000423 -0.999969
vn 0.007876 0.00042 -0.999969
vn 0.007876 0.000423 -0.999969
vn 0.007877 0.000423 -0.999969
vn 0.007878 0.000421 -0.999969
vn 0.007876 0.00042 -0.999969
vn 0.007877 0.000423 -0.999969
vn 0.007878 0.000421 -0.999969
vn 0.007877 0.000423 -0.999969
vn 0.007876 0.000424 -0.999969
vn 0.007875 0.000425 -0.999969
vn 0.007874 0.000426 -0.999969
vn 0.007876 0.000424 -0.999969
vn 0.007875 0.000425 -0.999969
vn 0.007876 0.000424 -0.999969
vn 0.007877 0.000423 -0.999969
vn 0.007874 0.000421 -0.999969
vn 0.007875 0.000425 -0.999969
vn 0.007877 0.000423 -0.999969
vn 0.007874 0.000421 -0.999969
vn 0.007877 0.000423 -0.999969
vn 0.007876 0.000423 -0.999969
vn 0.007878 0.000424 -0.999969
vn 0.007878 0.000425 -0.999969
vn 0.007876 0.000423 -0.999969
vn 0.007878 0.000424 -0.999969
vn 0.007876 0.000423 -0.999969
vn 0.007877 0.000423 -0.999969
vn 0.007875 0.000424 -0.999969
vn 0.007874 0.000423 -0.999969
vn 0.007872 0.000425 -0.999969
vn 0.007875 0.000424 -0.999969
vn 0.007872 0.000425 -0.999969
vn 0.007877 0.000423 -0.999969
vn 0.007873 0.000424 -0.999969
vn 0.007878 0.000424 -0.999969
vn 0.007877 0.000423 -0.999969
vn 0.007873 0.000424 -0.999969
vn 0.007877 0.000423 -0.999969
vn 0.007872 0.000425 -0.999969
vn 0.999899 0.011852 0.007878
vn 0.999899 0.011852 0.007878
vn 0.999899 0.011852 0.007878
vn 0.999899 0.011852 0.007878
vn 0.999899 0.011852 0.007878
vn 0.999899 0.011852 0.007879
vn 0.007877 0.000422 -0.999969
vn 0.007877 0.000422 -0.999969
vn 0.007877 0.000422 -0.999969
vn 0.007876 0.000423 -0.999969
vn 0.007876 0.000423 -0.999969
vn 0.007876 0.000423 -0.999969
vn 0.007876 0.000422 -0.999969
vn 0.007876 0.000422 -0.999969
vn 0.007876 0.000422 -0.999969
vn 0.007877 0.000422 -0.999969
vn 0.007877 0.000422 -0.999969
vn 0.007877 0.000422 -0.999969
vn 0.011855 -0.99993 -0.000325
vn 0.011855 -0.99993 -0.000326
vn 0.011855 -0.99993 -0.000325
vn 0.011855 -0.99993 -0.000325
vn 0.011855 -0.99993 -0.000325
vn 0.011855 -0.99993 -0.000324
vn -0.011854 0.99993 0.000329
vn -0.011854 0.99993 0.000324
vn -0.011854 0.99993 0.000329
vn -0.011854 0.99993 0.000329
vn -0.011854 0.99993 0.000329
vn -0.011855 0.99993 0.000334
vn -0.999899 -0.011852 -0.007878
vn -0.999899 -0.011852 -0.007878
vn -0.999899 -0.011852 -0.007878
vn -0.999899 -0.011852 -0.007878
vn -0.999899 -0.011852 -0.007878
vn -0.999899 -0.011852 -0.007878
vn -0.727275 0.686325 -0.00544
vn -0.727274 0.686325 -0.005441
vn -0.955378 0.295294 -0.0074
vn -0.727275 0.686325 -0.00544
vn -0.955378 0.295294 -0.0074
vn -0.948108 -0.317856 -0.007598
vn 0.686302 0.727294 0.005711
vn 0.686302 0.727294 0.005707
vn 0.295282 0.955406 0.00273
vn 0.686302 0.727294 0.005711
vn 0.295282 0.955406 0.00273
vn -0.31785 0.948139 -0.002103
vn -0.686302 -0.727294 -0.005715
vn -0.686302 -0.727295 -0.005715
vn -0.295282 -0.955406 -0.002728
vn -0.686302 -0.727294 -0.005715
vn -0.295282 -0.955406 -0.002728
vn 0.31785 -0.948139 0.002106
vn 0.727275 -0.686325 0.00544
vn 0.727275 -0.686325 0.00544
vn 0.955378 -0.295294 0.0074
vn 0.727275 -0.686325 0.00544
vn 0.955378 -0.295294 0.0074
vn 0.948109 0.317856 0.007601
vn -0.948108 -0.317856 -0.007598
vn -0.955378 0.295294 -0.0074
vn -0.710799 -0.703371 -0.005891
vn -0.948108 -0.317856 -0.007598
vn -0.710799 -0.703371 -0.005891
vn -0.710799 -0.703371 -0.005891
vn -0.999899 -0.011851 -0.007883
vn -0.999899 -0.011852 -0.007878
vn -0.999899 -0.011851 -0.007883
vn -0.999899 -0.011851 -0.007883
vn -0.999899 -0.011851 -0.007883
vn -0.999899 -0.011851 -0.007888
vn -0.955378 0.295294 -0.007399
vn -0.948109 -0.317856 -0.007602
vn -0.727274 0.686325 -0.00544
vn -0.955378 0.295294 -0.007399
vn -0.727274 0.686325 -0.00544
vn -0.727274 0.686325 -0.00544
vn -0.295283 -0.955406 -0.002736
vn 0.31785 -0.948139 0.0021
vn -0.686303 -0.727294 -0.005718
vn -0.295283 -0.955406 -0.002736
vn -0.686303 -0.727294 -0.005718
vn -0.686303 -0.727293 -0.005721
vn -0.00787 -0.000427 0.999969
vn -0.007872 -0.000427 0.999969
vn -0.007875 -0.000423 0.999969
vn 0.295283 0.955406 0.002728
vn -0.317849 0.948139 -0.002109
vn 0.686302 0.727294 0.005712
vn 0.295283 0.955406 0.002728
vn 0.686302 0.727294 0.005712
vn 0.686302 0.727294 0.005715
vn -0.007875 -0.000423 0.999969
vn -0.007872 -0.000427 0.999969
vn -0.007877 -0.00042 0.999969
vn -0.00787 -0.000427 0.999969
vn -0.007875 -0.000421 0.999969
vn -0.007874 -0.000424 0.999969
vn -0.00787 -0.000427 0.999969
vn -0.007874 -0.000424 0.999969
vn -0.007872 -0.000427 0.999969
vn -0.007874 -0.00042 0.999969
vn -0.007877 -0.00042 0.999969
vn -0.007872 -0.000427 0.999969
vn -0.007874 -0.00042 0.999969
vn -0.007872 -0.000427 0.999969
vn -0.007874 -0.000424 0.999969
vn -0.007875 -0.000423 0.999969
vn -0.007874 -0.00042 0.999969
vn -0.007874 -0.000424 0.999969
vn -0.007875 -0.000423 0.999969
vn -0.007874 -0.000424 0.999969
vn -0.007875 -0.000423 0.999969
vn -0.007875 -0.000422 0.999969
vn -0.007874 -0.000423 0.999969
vn -0.007875 -0.000423 0.999969
vn -0.007875 -0.000422 0.999969
vn -0.007875 -0.000423 0.999969
vn -0.007874 -0.000424 0.999969
vn -0.007874 -0.000427 0.999969
vn -0.007875 -0.000422 0.999969
vn -0.007874 -0.000424 0.999969
vn -0.007874 -0.000427 0.999969
vn -0.007874 -0.000424 0.999969
vn -0.007878 -0.000423 0.999969
vn -0.007879 -0.000421 0.999969
vn -0.007883 -0.000421 0.999969
vn -0.007878 -0.000423 0.999969
vn -0.007879 -0.000421 0.999969
vn -0.007878 -0.000423 0.999969
vn -0.007874 -0.000424 0.999969
vn -0.007877 -0.000422 0.999969
vn -0.007877 -0.000422 0.999969
vn -0.007877 -0.000422 0.999969
vn -0.007876 -0.000422 0.999969
vn -0.007876 -0.000422 0.999969
vn -0.007876 -0.000422 0.999969
vn -0.007876 -0.000422 0.999969
vn -0.007876 -0.000422 0.999969
vn -0.007876 -0.000422 0.999969
vn -0.007877 -0.000422 0.999969
vn -0.007877 -0.000422 0.999969
vn -0.007877 -0.000422 0.999969
vn 0.011854 -0.99993 -0.00033
vn 0.011854 -0.99993 -0.000335
vn 0.011854 -0.99993 -0.00033
vn 0.011854 -0.99993 -0.00033
vn 0.011854 -0.99993 -0.00033
vn 0.011855 -0.99993 -0.000324
vn -0.011854 0.99993 0.00033
vn -0.011855 0.99993 0.000334
vn -0.011854 0.99993 0.00033
vn -0.011854 0.99993 0.00033
vn -0.011854 0.99993 0.00033
vn -0.011854 0.99993 0.000325
vn 0.710799 0.70337 0.005898
vn 0.710799 0.703371 0.005905
vn 0.948109 0.317856 0.007604
vn 0.710799 0.70337 0.005898
vn 0.948109 0.317856 0.007604
vn 0.955378 -0.295295 0.007396
vn -0.703351 0.710823 -0.005244
vn -0.703351 0.710823 -0.005248
vn -0.317849 0.948139 -0.002109
vn -0.703351 0.710823 -0.005244
vn -0.317849 0.948139 -0.002109
vn 0.295283 0.955406 0.002728
vn 0.703351 -0.710823 0.005238
vn 0.703352 -0.710823 0.005241
vn 0.31785 -0.948139 0.0021
vn 0.703351 -0.710823 0.005238
vn 0.31785 -0.948139 0.0021
vn -0.295283 -0.955406 -0.002736
vn -0.710799 -0.70337 -0.005894
vn -0.710799 -0.70337 -0.005898
vn -0.948109 -0.317856 -0.007602
vn -0.710799 -0.70337 -0.005894
vn -0.948109 -0.317856 -0.007602
vn -0.955378 0.295294 -0.007399
vn 0.955378 -0.295295 0.007396
vn 0.948109 0.317856 0.007604
vn 0.727274 -0.686325 0.005436
vn 0.955378 -0.295295 0.007396
vn 0.727274 -0.686325 0.005436
vn 0.727274 -0.686326 0.005432
vn 0.999899 0.011855 0.007883
vn 0.999899 0.011855 0.00788
vn 0.999899 0.011855 0.00788
vn 0.999899 0.011855 0.007883
vn 0.999899 0.011855 0.00788
vn 0.999899 0.011853 0.007878
vn 0.999899 0.011853 0.007878
vn 0.999899 0.011855 0.00788
vn 0.999899 0.011851 0.007879
vn 0.999899 0.011853 0.007878
vn 0.999899 0.011851 0.007879
vn 0.999899 0.01185 0.00788
vn 0.999899 0.011851 0.007883
vn 0.999899 0.011852 0.007881
vn 0.999899 0.011852 0.007884
vn 0.999899 0.011851 0.007883
vn 0.999899 0.011852 0.007884
vn 0.999899 0.011855 0.007883
vn 0.999899 0.011852 0.007884
vn 0.999899 0.011852 0.007883
vn 0.999899 0.011855 0.007883
vn 0.999899 0.011855 0.007883
vn 0.999899 0.011852 0.007883
vn 0.999899 0.011855 0.00788
vn -0.999899 -0.011855 -0.007883
vn -0.999899 -0.011853 -0.00788
vn -0.999899 -0.011855 -0.00788
vn -0.999899 -0.011855 -0.007883
vn -0.999899 -0.011855 -0.00788
vn -0.999899 -0.011855 -0.00788
vn -0.999899 -0.011851 -0.007883
vn -0.999899 -0.011855 -0.007883
vn -0.999899 -0.011852 -0.007884
vn -0.999899 -0.011851 -0.007883
vn -0.999899 -0.011852 -0.007884
vn -0.999899 -0.011851 -0.007881
vn -0.999899 -0.011852 -0.007884
vn -0.999899 -0.011855 -0.007883
vn -0.999899 -0.011853 -0.007881
vn -0.999899 -0.011855 -0.007883
vn -0.999899 -0.011855 -0.00788
vn -0.999899 -0.011853 -0.007881
vn 0.007876 0.000424 -0.999969
vn 0.007876 0.000424 -0.999969
vn 0.007876 0.000424 -0.999969
vn 0.007876 0.000424 -0.999969
vn 0.007876 0.000424 -0.999969
vn 0.007876 0.000424 -0.999969
vn 0.011855 -0.99993 -0.000329
vn 0.011855 -0.99993 -0.00033
vn 0.011855 -0.99993 -0.000329
vn 0.011855 -0.99993 -0.000329
vn 0.011855 -0.99993 -0.000329
vn 0.011855 -0.99993 -0.000329
vn 0.011855 -0.99993 -0.000329
vn 0.011855 -0.99993 -0.000329
vn 0.011855 -0.99993 -0.000329
vn 0.011855 -0.99993 -0.000329
vn 0.011855 -0.99993 -0.000329
vn 0.011855 -0.99993 -0.000329
vn 0.011855 -0.99993 -0.000329
vn 0.011855 -0.99993 -0.000329
vn 0.011855 -0.99993 -0.000329
vn 0.011855 -0.99993 -0.000329
vn 0.011855 -0.99993 -0.000329
vn 0.011855 -0.99993 -0.000329
vn -0.007876 -0.000429 0.999969
vn -0.007876 -0.000423 0.999969
vn -0.007876 -0.000429 0.999969
vn -0.007876 -0.000429 0.999969
vn -0.007876 -0.000429 0.999969
vn -0.007876 -0.000434 0.999969
vn -0.999899 -0.011856 -0.00788
vn -0.999899 -0.011857 -0.00788
vn -0.999899 -0.011856 -0.00788
vn -0.999899 -0.011856 -0.00788
vn -0.999899 -0.011856 -0.00788
vn -0.999899 -0.011856 -0.00788
vn -0.011855 0.99993 0.000329
vn -0.011854 0.99993 0.000329
vn -0.011855 0.99993 0.000329
vn -0.011855 0.99993 0.000329
vn -0.011855 0.99993 0.000329
vn -0.011855 0.99993 0.000329
vn -0.011855 0.99993 0.000327
vn -0.011855 0.99993 0.000329
vn -0.011853 0.99993 0.000328
vn -0.011855 0.99993 0.000327
vn -0.011853 0.99993 0.000328
vn -0.011854 0.99993 0.000328
vn -0.011855 0.99993 0.000329
vn -0.011855 0.99993 0.000329
vn -0.011855 0.99993 0.000329
vn -0.011855 0.99993 0.000329
vn -0.011855 0.99993 0.000329
vn -0.011855 0.99993 0.000327
vn -0.011854 0.99993 0.000328
vn -0.011853 0.99993 0.000328
vn -0.011854 0.99993 0.000329
vn -0.011854 0.99993 0.000328
vn -0.011854 0.99993 0.000329
vn -0.011855 0.99993 0.000329
vn 0.007878 0.000425 -0.999969
vn 0.007873 0.000424 -0.999969
vn 0.007873 0.000423 -0.999969
vn 0.007878 0.000425 -0.999969
vn 0.007873 0.000423 -0.999969
vn 0.007876 0.000422 -0.999969
vn 0.007875 0.000422 -0.999969
vn 0.007873 0.000423 -0.999969
vn 0.007874 0.000423 -0.999969
vn 0.007875 0.000422 -0.999969
vn 0.007874 0.000423 -0.999969
vn 0.007879 0.000426 -0.999969
vn 0.007879 0.000426 -0.999969
vn 0.007876 0.000423 -0.999969
vn 0.007875 0.000422 -0.999969
vn 0.007876 0.000423 -0.999969
vn 0.007875 0.000422 -0.999969
vn 0.007872 0.00042 -0.999969
vn 0.007876 0.000423 -0.999969
vn 0.007872 0.00042 -0.999969
vn 0.007878 0.000421 -0.999969
vn 0.007875 0.000422 -0.999969
vn 0.007876 0.000423 -0.999969
vn 0.007872 0.00042 -0.999969
vn -0.007878 -0.000419 0.999969
vn -0.007879 -0.000421 0.999969
vn -0.007874 -0.000417 0.999969
vn -0.007874 -0.000427 0.999969
vn -0.007878 -0.000423 0.999969
vn -0.007878 -0.000425 0.999969
vn -0.007878 -0.000425 0.999969
vn -0.007874 -0.000424 0.999969
vn -0.007874 -0.000423 0.999969
vn -0.007878 -0.000425 0.999969
vn -0.007874 -0.000423 0.999969
vn -0.007874 -0.000427 0.999969
vn -0.007878 -0.000425 0.999969
vn -0.007878 -0.000423 0.999969
vn -0.007883 -0.000421 0.999969
vn -0.007875 -0.000423 0.999969
vn -0.007875 -0.000423 0.999969
vn -0.007874 -0.000424 0.999969
vn -0.007875 -0.000423 0.999969
vn -0.007878 -0.000419 0.999969
vn -0.007874 -0.000415 0.999969
vn -0.007875 -0.000423 0.999969
vn -0.007874 -0.000415 0.999969
vn -0.00787 -0.000427 0.999969
vn -0.007878 -0.000419 0.999969
vn -0.007874 -0.000417 0.999969
vn -0.007874 -0.000415 0.999969
vn -0.007874 -0.000424 0.999969
vn -0.007875 -0.000423 0.999969
vn -0.007877 -0.00042 0.999969
vn -0.007874 -0.000424 0.999969
vn -0.007877 -0.00042 0.999969
vn -0.007875 -0.000423 0.999969
vn -0.007874 -0.000424 0.999969
vn -0.007875 -0.000423 0.999969
vn -0.007874 -0.000423 0.999969
vn -0.007875 -0.000421 0.999969
vn -0.007874 -0.000415 0.999969
vn -0.007874 -0.000417 0.999969
vn -0.007875 -0.000421 0.999969
vn -0.007874 -0.000417 0.999969
vn -0.007874 -0.000424 0.999969
vn -0.007879 -0.000421 0.999969
vn -0.007879 -0.000421 0.999969
vn -0.007874 -0.000424 0.999969
vn -0.007879 -0.000421 0.999969
vn -0.007874 -0.000424 0.999969
vn -0.007874 -0.000417 0.999969
vn -0.007883 -0.000421 0.999969
vn -0.007879 -0.000421 0.999969
vn -0.007878 -0.000419 0.999969
vn -0.007883 -0.000421 0.999969
vn -0.007878 -0.000419 0.999969
vn -0.007878 -0.000425 0.999969

# , 216 grouped triangles

usemtl skin
o
g

f 4/1/1 10/2/2 9/3/3
f 4/4/4 9/5/5 5/6/6
f 8/7/7 9/8/8 10/9/9
f 8/10/10 10/11/11 6/12/12
f 5/13/13 3/14/14 11/15/15
f 5/16/16 11/17/17 13/18/18
f 6/19/19 7/20/20 15/21/21
f 6/22/22 15/23/23 14/24/24
f 8/25/25 2/26/26 9/27/27
f 2/28/28 8/29/29 7/30/30
f 2/31/31 7/32/32 1/33/33
f 2/34/34 5/35/35 9/36/36
f 16/37/37 14/38/38 15/39/39
f 13/40/40 11/41/41 12/42/42
f 7/43/43 8/44/44 16/45/45
f 7/46/46 16/47/47 15/48/48
f 3/49/49 4/50/50 12/51/51
f 3/52/52 12/53/53 11/54/54
f 4/55/55 5/56/56 13/57/57
f 4/58/58 13/59/59 12/60/60
f 8/61/61 6/62/62 14/63/63
f 8/64/64 14/65/65 16/66/66
f 21/67/67 22/68/68 26/69/69
f 21/70/70 26/71/71 27/72/72
f 25/73/73 23/74/74 27/75/75
f 25/76/76 27/77/77 26/78/78
f 22/79/79 30/80/80 28/81/81
f 22/82/82 28/83/83 20/84/84
f 23/85/85 31/86/86 32/87/87
f 23/88/88 32/89/89 24/90/90
f 25/91/91 26/92/92 18/93/93
f 19/94/94 18/95/95 22/96/96
f 19/97/97 22/98/98 20/99/99
f 18/100/100 17/101/101 24/102/102
f 18/103/103 24/104/104 25/105/105
f 18/106/106 26/107/107 22/108/108
f 33/109/109 32/110/110 31/111/111
f 30/112/112 29/113/113 28/114/114
f 24/115/115 32/116/116 33/117/117
f 24/118/118 33/119/119 25/120/120
f 20/121/121 28/122/122 29/123/123
f 20/124/124 29/125/125 21/126/126
f 21/127/127 29/128/128 30/129/129
f 21/130/130 30/131/131 22/132/132
f 25/133/133 33/134/134 31/135/135
f 25/136/136 31/137/137 23/138/138
f 18/139/139 37/140/140 36/141/141
f 18/142/142 36/143/143 17/144/144
f 40/145/145 41/146/146 39/147/147
f 40/148/148 39/149/149 38/150/150
f 37/151/151 41/152/152 40/153/153
f 37/154/154 40/155/155 36/156/156
f 46/157/157 50/158/158 48/159/159
f 46/160/160 48/161/161 43/162/162
f 50/163/163 51/164/164 49/165/165
f 50/166/166 49/167/167 48/168/168
f 42/169/169 49/170/170 51/171/171
f 42/172/172 51/173/173 47/174/174
f 43/175/175 48/176/176 49/177/177
f 43/178/178 49/179/179 42/180/180
f 47/181/181 51/182/182 50/183/183
f 47/184/184 50/185/185 46/186/186
f 62/187/187 79/188/188 80/189/189
f 62/190/190 80/191/191 63/192/192
f 54/193/193 65/194/194 44/195/195
f 57/196/196 72/197/197 2/198/198
f 55/199/199 73/200/200 67/201/201
f 55/202/202 67/203/203 53/204/204
f 2/205/205 18/206/206 56/207/207
f 2/208/208 56/209/209 57/210/210
f 2/211/211 72/212/212 53/213/213
f 63/214/214 69/215/215 18/216/216
f 58/217/217 75/218/218 71/219/219
f 58/220/220 71/221/221 56/222/222
f 44/223/223 65/224/224 59/225/225
f 61/226/226 78/227/227 76/228/228
f 61/229/229 76/230/230 59/231/231
f 18/232/232 69/233/233 56/234/234
f 60/235/235 61/236/236 52/237/237
f 60/238/238 52/239/239 68/240/240
f 64/241/241 62/242/242 68/243/243
f 64/244/244 68/245/245 52/246/246
f 63/247/247 64/248/248 52/249/249
f 63/250/250 52/251/251 69/252/252
f 58/253/253 56/254/254 69/255/255
f 58/256/256 69/257/257 52/258/258
f 57/259/259 58/260/260 52/261/261
f 57/262/262 52/263/263 72/264/264
f 55/265/265 53/266/266 72/267/267
f 55/268/268 72/269/269 52/270/270
f 61/271/271 59/272/272 65/273/273
f 61/274/274 65/275/275 52/276/276
f 54/277/277 55/278/278 52/279/279
f 54/280/280 52/281/281 65/282/282
f 97/283/283 96/284/284 85/285/285
f 97/286/286 85/287/287 84/288/288
f 67/289/289 73/290/290 66/291/291
f 71/292/292 75/293/293 74/294/294
f 76/295/295 78/296/296 77/297/297
f 79/298/298 81/299/299 80/300/300
f 59/301/301 76/302/302 77/303/303
f 59/304/304 77/305/305 60/306/306
f 56/307/307 71/308/308 74/309/309
f 56/310/310 74/311/311 57/312/312
f 53/313/313 67/314/314 66/315/315
f 53/316/316 66/317/317 54/318/318
f 63/319/319 80/320/320 81/321/321
f 63/322/322 81/323/323 64/324/324
f 60/325/325 77/326/326 78/327/327
f 60/328/328 78/329/329 61/330/330
f 57/331/331 74/332/332 75/333/333
f 57/334/334 75/335/335 58/336/336
f 54/337/337 66/338/338 73/339/339
f 54/340/340 73/341/341 55/342/342
f 64/343/343 81/344/344 79/345/345
f 64/346/346 79/347/347 62/348/348
f 93/349/349 108/350/350 109/351/351
f 93/352/352 109/353/353 94/354/354
f 86/355/355 102/356/356 97/357/357
f 86/358/358 97/359/359 84/360/360
f 89/361/361 104/362/362 100/363/363
f 89/364/364 100/365/365 87/366/366
f 91/367/367 98/368/368 70/369/369
f 92/370/370 107/371/371 105/372/372
f 92/373/373 105/374/374 90/375/375
f 70/376/376 98/377/377 93/378/378
f 91/379/379 92/380/380 83/381/381
f 91/382/382 83/383/383 98/384/384
f 95/385/385 93/386/386 98/387/387
f 95/388/388 98/389/389 83/390/390
f 94/391/391 95/392/392 83/393/393
f 94/394/394 83/395/395 99/396/396
f 89/397/397 87/398/398 99/399/399
f 89/400/400 99/401/401 83/402/402
f 88/403/403 89/404/404 83/405/405
f 88/406/406 83/407/407 101/408/408
f 86/409/409 84/410/410 101/411/411
f 86/412/412 101/413/413 83/414/414
f 97/415/415 102/416/416 96/417/417
f 100/418/418 104/419/419 103/420/420
f 105/421/421 107/422/422 106/423/423
f 108/424/424 110/425/425 109/426/426
f 90/427/427 105/428/428 106/429/429
f 90/430/430 106/431/431 91/432/432
f 87/433/433 100/434/434 103/435/435
f 87/436/436 103/437/437 88/438/438
f 94/439/439 109/440/440 110/441/441
f 94/442/442 110/443/443 95/444/444
f 91/445/445 106/446/446 107/447/447
f 91/448/448 107/449/449 92/450/450
f 88/451/451 103/452/452 104/453/453
f 88/454/454 104/455/455 89/456/456
f 85/457/457 96/458/458 102/459/459
f 85/460/460 102/461/461 86/462/462
f 95/463/463 110/464/464 108/465/465
f 95/466/466 108/467/467 93/468/468
f 70/469/469 4/470/470 3/471/471
f 70/472/472 3/473/473 44/474/474
f 44/475/475 3/476/476 5/477/477
f 44/478/478 5/479/479 2/480/480
f 1/481/481 7/482/482 6/483/483
f 1/484/484 6/485/485 70/486/486
f 6/487/487 10/488/488 70/489/489
f 70/490/490 10/491/491 4/492/492
f 45/493/493 19/494/494 20/495/495
f 45/496/496 20/497/497 21/498/498
f 17/499/499 45/500/500 23/501/501
f 17/502/502 23/503/503 24/504/504
f 23/505/505 45/506/506 27/507/507
f 45/508/508 21/509/509 27/510/510
f 36/511/511 40/512/512 38/513/513
f 36/514/514 38/515/515 35/516/516
f 17/517/517 36/518/518 35/519/519
f 17/520/520 35/521/521 1/522/522
f 2/523/523 34/524/524 37/525/525
f 2/526/526 37/527/527 18/528/528
f 1/529/529 35/530/530 34/531/531
f 1/532/532 34/533/533 2/534/534
f 34/535/535 39/536/536 41/537/537
f 34/538/538 41/539/539 37/540/540
f 35/541/541 38/542/542 39/543/543
f 35/544/544 39/545/545 34/546/546
f 70/547/547 46/548/548 43/549/549
f 70/550/550 43/551/551 45/552/552
f 19/553/553 42/554/554 47/555/555
f 19/556/556 47/557/557 44/558/558
f 45/559/559 43/560/560 42/561/561
f 45/562/562 42/563/563 19/564/564
f 44/565/565 47/566/566 46/567/567
f 44/568/568 46/569/569 70/570/570
f 53/571/571 54/572/572 44/573/573
f 53/574/574 44/575/575 2/576/576
f 19/577/577 44/578/578 59/579/579
f 19/580/580 59/581/581 60/582/582
f 60/583/583 68/584/584 19/585/585
f 18/586/586 19/587/587 62/588/588
f 18/589/589 62/590/590 63/591/591
f 19/592/592 68/593/593 62/594/594
f 45/595/595 85/596/596 82/597/597
f 88/598/598 101/599/599 17/600/600
f 17/601/601 1/602/602 87/603/603
f 17/604/604 87/605/605 88/606/606
f 17/607/607 101/608/608 84/609/609
f 94/610/610 99/611/611 1/612/612
f 70/613/613 45/614/614 90/615/615
f 70/616/616 90/617/617 91/618/618
f 45/619/619 82/620/620 90/621/621
f 1/622/622 70/623/623 93/624/624
f 1/625/625 93/626/626 94/627/627
f 1/628/628 99/629/629 87/630/630
f 92/631/631 90/632/632 82/633/633
f 92/634/634 82/635/635 83/636/636
f 85/637/637 86/638/638 83/639/639
f 85/640/640 83/641/641 82/642/642
f 84/643/643 85/644/644 45/645/645
f 84/646/646 45/647/647 17/648/648
