# Wavefront OBJ file
# Creator: Ultimate Unwrap3D Pro v3.33
# Website: http://www.unwrap3d.com
# Time: Sun Apr 06 01:23:01 2014
# num_vertices: 152
# num_vertex_normals: 152
# num_uvs: 600
# num_faces: 150
# num_groups: 1

mtllib rock2.mtl

v -0.673211 -0.673042 0.337919
v -0.751067 -0.485957 0.211980
v -0.518866 -0.518163 0.128926
v -0.466759 -0.729198 0.250702
v -0.200621 -0.575561 0.071245
v -0.183532 -0.800983 0.229903
v 0.184322 -0.609598 -0.001037
v 0.134014 -0.808181 0.252205
v 0.566330 -0.586574 0.051650
v 0.455767 -0.810005 0.229981
v 0.754086 -0.445475 0.276059
v 0.640944 -0.670196 0.373597
v -0.865793 -0.211905 0.110284
v -0.569587 -0.200355 0.041549
v -0.209562 -0.208483 -0.083430
v 0.226215 -0.207087 -0.073371
v 0.591256 -0.201659 0.004067
v 0.779771 -0.162297 0.203732
v -0.889609 0.133760 0.078810
v -0.636306 0.188361 -0.080630
v -0.218495 0.237896 -0.117387
v 0.227293 0.227609 -0.102306
v 0.619276 0.198115 -0.038303
v 0.836953 0.173977 0.149153
v -0.756600 0.429049 0.214064
v -0.534950 0.534536 0.081490
v -0.216034 0.634756 -0.104560
v 0.188210 0.576417 0.004791
v 0.531746 0.531746 0.081115
v 0.949256 0.580784 0.045489
v -0.675573 0.646259 0.291614
v -0.455182 0.763081 0.183265
v -0.170946 0.810917 0.115080
v 0.157447 0.801209 0.105120
v 0.509825 0.844609 0.108927
v 0.837100 0.837102 0.159670
v -0.790932 -0.789195 1.700112
v -0.510899 -0.808948 1.732649
v -0.614392 -0.614523 1.945405
v -0.962264 -0.613850 1.902223
v -0.219696 -0.883557 1.817739
v -0.239782 -0.663934 1.997314
v 0.107178 -0.916569 1.901415
v 0.154810 -0.704127 2.061918
v 0.452715 -0.912604 1.906051
v 0.528372 -0.626751 1.983581
v 0.776226 -0.913874 1.881607
v 0.747054 -0.557772 1.842830
v -0.745288 -0.287967 2.103966
v -0.984303 -0.245519 1.854869
v -0.310169 -0.309084 2.180289
v 0.156771 -0.313486 2.126851
v 0.500396 -0.247914 1.956902
v 0.712215 -0.226354 1.786838
v -0.673604 0.150963 1.970701
v -0.915394 0.110242 1.804156
v -0.308858 0.154137 2.113258
v 0.128510 0.128963 2.070131
v 0.512645 0.141178 1.977259
v 0.729747 0.092074 1.795223
v -0.586627 0.486097 1.858737
v -0.834000 0.396562 1.720732
v -0.248247 0.491649 1.930541
v 0.140662 0.516781 1.940117
v 0.471125 0.471198 1.849796
v 0.664499 0.373034 1.726032
v -0.526184 0.696890 1.689566
v -0.742671 0.602446 1.624315
v -0.227501 0.712059 1.722446
v 0.091307 0.725904 1.738962
v 0.421375 0.757750 1.781691
v 0.597157 0.597158 1.621160
v -0.558477 -0.902225 0.451631
v -0.790332 -0.789849 0.533868
v -0.214138 -0.978823 0.449811
v 0.176185 -1.026285 0.454651
v 0.479960 -0.885161 0.523464
v 0.698625 -0.767700 0.591586
v -0.607706 -1.012952 0.773236
v -0.896349 -0.895992 0.826085
v -0.268212 -1.220838 0.799879
v 0.211464 -1.302525 0.833402
v 0.543790 -0.993738 0.858554
v 0.779712 -0.811112 0.872691
v -0.695320 -1.147411 1.198332
v -0.996313 -0.994764 1.194409
v -0.250980 -1.154938 1.244778
v 0.186522 -1.188277 1.282371
v 0.616545 -1.128302 1.269604
v 0.837742 -0.919074 1.216122
v -0.592958 -0.974104 1.509465
v -0.906064 -0.904016 1.500731
v -0.243906 -1.035647 1.597685
v 0.144968 -1.073654 1.657200
v 0.526230 -1.035349 1.635418
v 0.829754 -0.959545 1.570549
v 0.830611 -0.514251 0.530614
v 0.981171 -0.188930 0.419000
v 1.034297 0.218418 0.389254
v 0.951834 0.593677 0.414532
v 0.747929 0.747962 0.526770
v 0.917220 -0.582173 0.831804
v 1.151422 -0.265546 0.767045
v 1.061682 0.206341 0.783448
v 0.935041 0.577689 0.801605
v 0.783764 0.783826 0.827394
v 1.028759 -0.699001 1.228876
v 1.013562 -0.265118 1.235734
v 1.018013 0.175595 1.240018
v 0.898699 0.527486 1.187789
v 0.765169 0.765196 1.148248
v 0.923862 -0.674393 1.620205
v 0.902421 -0.276635 1.596783
v 0.884432 0.111862 1.585362
v 0.795498 0.441034 1.519106
v 0.694053 0.694053 1.422910
v 0.609413 0.980043 0.357079
v 0.220957 1.084831 0.246944
v -0.189291 0.983452 0.344997
v -0.510798 0.844989 0.424741
v -0.765270 0.713513 0.498506
v 0.608526 1.000781 0.750938
v 0.234351 1.181371 0.646786
v -0.228766 1.013823 0.720770
v -0.599718 0.931730 0.759511
v -0.832876 0.772616 0.782081
v 0.589673 1.010709 1.166643
v 0.193914 1.157248 1.145924
v -0.281336 1.084302 1.163538
v -0.614145 0.904406 1.145875
v -0.848787 0.776822 1.106012
v 0.478524 0.872360 1.519350
v 0.108564 0.904072 1.503533
v -0.280051 0.882416 1.515543
v -0.598359 0.788521 1.460889
v -0.811662 0.679541 1.394264
v -0.970662 0.544093 0.387860
v -0.997408 0.171752 0.353122
v -0.992586 -0.220807 0.371162
v -0.943895 -0.577344 0.432873
v -1.009304 0.550963 0.762541
v -1.174212 0.186916 0.727443
v -1.151037 -0.252217 0.752165
v -1.169790 -0.714194 0.778797
v -1.054109 0.559755 1.153852
v -1.358370 0.219997 1.210674
v -1.147155 -0.249326 1.191183
v -1.004083 -0.614048 1.193343
v -0.961319 0.483932 1.502528
v -1.120506 0.161666 1.574683
v -1.027964 -0.235462 1.538055
v -0.952627 -0.581897 1.518161
# num_vertices: 152

vn -0.443149 -0.623365 -0.644232
vn -0.521696 -0.557867 -0.645459
vn -0.308694 -0.480856 -0.820662
vn -0.329344 -0.622371 -0.710061
vn -0.145423 -0.449572 -0.881327
vn -0.088389 -0.651298 -0.753656
vn -0.015818 -0.503034 -0.864122
vn -0.007721 -0.710158 -0.704001
vn 0.469244 -0.497554 -0.729555
vn 0.363589 -0.766736 -0.529073
vn 0.818451 -0.376906 -0.433683
vn 0.712343 -0.618127 -0.332395
vn -0.636467 -0.313276 -0.704818
vn -0.281521 -0.298468 -0.911955
vn -0.182090 -0.275420 -0.943921
vn 0.044332 -0.182641 -0.982180
vn 0.502426 -0.133779 -0.854208
vn 0.802025 -0.163267 -0.574542
vn -0.576272 0.242214 -0.780540
vn -0.328537 0.151887 -0.932198
vn -0.102787 0.019796 -0.994506
vn 0.112170 0.050322 -0.992414
vn 0.467214 0.140322 -0.872938
vn 0.734710 -0.077871 -0.673897
vn -0.571379 0.499816 -0.650931
vn -0.464721 0.496813 -0.732947
vn -0.101685 0.467088 -0.878344
vn 0.192461 0.388460 -0.901142
vn 0.250824 0.319884 -0.913653
vn 0.689786 0.170840 -0.703569
vn -0.656547 0.555734 -0.510005
vn -0.512226 0.625327 -0.588719
vn -0.148745 0.647706 -0.747230
vn 0.106893 0.654143 -0.748779
vn 0.011353 0.751997 -0.659068
vn 0.436641 0.793784 -0.423382
vn -0.534525 -0.709886 0.458633
vn -0.240914 -0.774665 0.584684
vn -0.215911 -0.534914 0.816854
vn -0.747113 -0.352128 0.563762
vn -0.266486 -0.734325 0.624301
vn -0.248676 -0.601797 0.758947
vn -0.078522 -0.729943 0.678983
vn -0.054828 -0.486179 0.872137
vn 0.128954 -0.670758 0.730380
vn 0.216618 -0.249717 0.943779
vn 0.510966 -0.572129 0.641546
vn 0.656712 -0.125730 0.743587
vn -0.310748 0.047092 0.949325
vn -0.720680 -0.028369 0.692687
vn -0.110397 -0.139656 0.984027
vn 0.153266 -0.094790 0.983628
vn 0.458447 0.004815 0.888709
vn 0.672596 0.042863 0.738767
vn -0.447537 0.332280 0.830241
vn -0.696673 0.217796 0.683529
vn -0.067451 0.329991 0.941571
vn 0.218460 0.265885 0.938925
vn 0.493690 0.188824 0.848891
vn 0.697347 0.167225 0.696952
vn -0.416600 0.496401 0.761597
vn -0.606870 0.523888 0.597705
vn -0.117316 0.555595 0.823135
vn 0.139553 0.553027 0.821393
vn 0.456574 0.424255 0.782016
vn 0.671766 0.359410 0.647731
vn -0.395043 0.665210 0.633590
vn -0.559724 0.657719 0.504098
vn -0.144460 0.712793 0.686336
vn 0.063472 0.789357 0.610645
vn 0.432442 0.639405 0.635732
vn 0.650285 0.423119 0.630951
vn -0.355074 -0.758814 -0.546007
vn -0.478070 -0.657772 -0.582052
vn -0.125979 -0.811871 -0.570083
vn 0.085192 -0.765311 -0.637998
vn 0.429617 -0.755254 -0.494996
vn 0.695992 -0.634233 -0.336665
vn -0.402513 -0.834618 -0.376026
vn -0.537078 -0.801100 -0.264171
vn -0.247506 -0.922724 -0.295503
vn 0.246319 -0.943252 -0.222716
vn 0.581337 -0.767828 -0.269237
vn 0.689868 -0.643491 -0.331664
vn -0.377172 -0.924786 0.050129
vn -0.688771 -0.704548 0.170898
vn -0.217449 -0.961771 0.166472
vn 0.138565 -0.954157 0.265301
vn 0.557699 -0.818440 0.138302
vn 0.737838 -0.668091 -0.096174
vn -0.246833 -0.812777 0.527699
vn -0.780676 -0.536910 0.319803
vn -0.157096 -0.842623 0.515080
vn -0.002666 -0.895454 0.445147
vn 0.324912 -0.843252 0.428203
vn 0.710634 -0.657049 0.251565
vn 0.827613 -0.432031 -0.358338
vn 0.846249 -0.264384 -0.462561
vn 0.874655 -0.134700 -0.465654
vn 0.938152 0.303798 -0.166065
vn 0.683115 0.729589 0.032451
vn 0.780107 -0.529946 -0.332552
vn 0.922428 -0.295222 -0.248941
vn 0.988491 0.147177 -0.034998
vn 0.869011 0.490163 0.067530
vn 0.786828 0.616219 0.034285
vn 0.871141 -0.473860 -0.128727
vn 0.985605 -0.113680 0.125136
vn 0.938973 0.208532 0.273575
vn 0.858598 0.441033 0.261341
vn 0.788517 0.566993 0.238243
vn 0.932161 -0.239476 0.271528
vn 0.880341 0.038182 0.472802
vn 0.842316 0.182298 0.507219
vn 0.767892 0.416940 0.486316
vn 0.725235 0.505986 0.466917
vn 0.305529 0.944386 -0.121599
vn -0.035413 0.895469 -0.443712
vn -0.267185 0.827468 -0.493872
vn -0.451999 0.813872 -0.365115
vn -0.597235 0.707625 -0.377593
vn 0.628344 0.777204 -0.033727
vn 0.023534 0.997497 -0.066678
vn -0.319033 0.939544 -0.124395
vn -0.437412 0.886218 -0.152608
vn -0.603245 0.780623 -0.163476
vn 0.596810 0.770853 0.222721
vn 0.077871 0.958866 0.272967
vn -0.296575 0.928404 0.223849
vn -0.450499 0.877699 0.163388
vn -0.636598 0.754193 0.161043
vn 0.478780 0.744625 0.465083
vn 0.056609 0.859821 0.507448
vn -0.226746 0.786538 0.574407
vn -0.446565 0.759327 0.473289
vn -0.568251 0.731182 0.377443
vn -0.724850 0.515429 -0.457084
vn -0.878898 0.130040 -0.458942
vn -0.894884 -0.201686 -0.398128
vn -0.686780 -0.502289 -0.525394
vn -0.845377 0.513569 -0.146917
vn -0.961179 0.103104 -0.255939
vn -0.953226 -0.063561 -0.295500
vn -0.876854 -0.450631 -0.167506
vn -0.776958 0.617189 0.124155
vn -0.977882 0.186197 0.095280
vn -0.972257 -0.202226 0.117562
vn -0.928022 -0.285628 0.239148
vn -0.657974 0.630792 0.411305
vn -0.817058 0.143807 0.558333
vn -0.870399 -0.300320 0.390146
vn -0.972423 -0.183709 0.143684
# num_vertex_normals: 152

vt 0.648149 0.043270
vt 0.657265 0.083234
vt 0.614912 0.081925
vt 0.607999 0.040140
vt 0.607999 0.040140
vt 0.614912 0.081925
vt 0.559063 0.075633
vt 0.556545 0.029048
vt 0.556545 0.029048
vt 0.559063 0.075633
vt 0.493765 0.078361
vt 0.497900 0.025000
vt 0.497900 0.025000
vt 0.493765 0.078361
vt 0.431944 0.085616
vt 0.438260 0.036165
vt 0.438260 0.036165
vt 0.431944 0.085616
vt 0.380449 0.098023
vt 0.391086 0.050859
vt 0.657265 0.083234
vt 0.675500 0.134705
vt 0.624369 0.137641
vt 0.614912 0.081925
vt 0.614912 0.081925
vt 0.624369 0.137641
vt 0.561667 0.141694
vt 0.559063 0.075633
vt 0.559063 0.075633
vt 0.561667 0.141694
vt 0.490441 0.145136
vt 0.493765 0.078361
vt 0.493765 0.078361
vt 0.490441 0.145136
vt 0.428362 0.148133
vt 0.431944 0.085616
vt 0.431944 0.085616
vt 0.428362 0.148133
vt 0.381492 0.151352
vt 0.380449 0.098023
vt 0.675500 0.134705
vt 0.680817 0.196218
vt 0.632384 0.205250
vt 0.624369 0.137641
vt 0.624369 0.137641
vt 0.632384 0.205250
vt 0.565520 0.215135
vt 0.561667 0.141694
vt 0.561667 0.141694
vt 0.565520 0.215135
vt 0.492825 0.216512
vt 0.490441 0.145136
vt 0.490441 0.145136
vt 0.492825 0.216512
vt 0.427890 0.214012
vt 0.428362 0.148133
vt 0.428362 0.148133
vt 0.427890 0.214012
vt 0.382571 0.211247
vt 0.381492 0.151352
vt 0.680817 0.196218
vt 0.671179 0.258057
vt 0.625672 0.270246
vt 0.632384 0.205250
vt 0.632384 0.205250
vt 0.625672 0.270246
vt 0.566112 0.277507
vt 0.565520 0.215135
vt 0.565520 0.215135
vt 0.566112 0.277507
vt 0.499090 0.277034
vt 0.492825 0.216512
vt 0.492825 0.216512
vt 0.499090 0.277034
vt 0.440257 0.271696
vt 0.427890 0.214012
vt 0.427890 0.214012
vt 0.440257 0.271696
vt 0.371424 0.280573
vt 0.382571 0.211247
vt 0.671179 0.258057
vt 0.661188 0.299322
vt 0.616578 0.314162
vt 0.625672 0.270246
vt 0.625672 0.270246
vt 0.616578 0.314162
vt 0.563480 0.321767
vt 0.566112 0.277507
vt 0.566112 0.277507
vt 0.563480 0.321767
vt 0.505072 0.317912
vt 0.499090 0.277034
vt 0.499090 0.277034
vt 0.505072 0.317912
vt 0.446269 0.324504
vt 0.440257 0.271696
vt 0.440257 0.271696
vt 0.446269 0.324504
vt 0.391167 0.326613
vt 0.371424 0.280573
vt 0.053119 0.688160
vt 0.100990 0.681785
vt 0.090716 0.732303
vt 0.032607 0.737841
vt 0.100990 0.681785
vt 0.154194 0.676654
vt 0.154597 0.723861
vt 0.090716 0.732303
vt 0.154194 0.676654
vt 0.212742 0.679087
vt 0.220235 0.722671
vt 0.154597 0.723861
vt 0.212742 0.679087
vt 0.271168 0.683814
vt 0.282840 0.733180
vt 0.220235 0.722671
vt 0.271168 0.683814
vt 0.324732 0.682081
vt 0.325935 0.742495
vt 0.282840 0.733180
vt 0.032607 0.737841
vt 0.090716 0.732303
vt 0.078500 0.791541
vt 0.025000 0.799367
vt 0.090716 0.732303
vt 0.154597 0.723861
vt 0.147001 0.788662
vt 0.078500 0.791541
vt 0.154597 0.723861
vt 0.220235 0.722671
vt 0.220959 0.786658
vt 0.147001 0.788662
vt 0.220235 0.722671
vt 0.282840 0.733180
vt 0.283361 0.797213
vt 0.220959 0.786658
vt 0.282840 0.733180
vt 0.325935 0.742495
vt 0.329186 0.801241
vt 0.283361 0.797213
vt 0.025000 0.799367
vt 0.078500 0.791541
vt 0.082797 0.865851
vt 0.033202 0.863833
vt 0.078500 0.791541
vt 0.147001 0.788662
vt 0.146359 0.863173
vt 0.082797 0.865851
vt 0.147001 0.788662
vt 0.220959 0.786658
vt 0.217868 0.859738
vt 0.146359 0.863173
vt 0.220959 0.786658
vt 0.283361 0.797213
vt 0.282020 0.862362
vt 0.217868 0.859738
vt 0.283361 0.797213
vt 0.329186 0.801241
vt 0.329155 0.858415
vt 0.282020 0.862362
vt 0.033202 0.863833
vt 0.082797 0.865851
vt 0.095007 0.924201
vt 0.045156 0.916286
vt 0.082797 0.865851
vt 0.146359 0.863173
vt 0.153939 0.924562
vt 0.095007 0.924201
vt 0.146359 0.863173
vt 0.217868 0.859738
vt 0.220238 0.926584
vt 0.153939 0.924562
vt 0.217868 0.859738
vt 0.282020 0.862362
vt 0.278439 0.922363
vt 0.220238 0.926584
vt 0.282020 0.862362
vt 0.329155 0.858415
vt 0.319748 0.910403
vt 0.278439 0.922363
vt 0.045156 0.916286
vt 0.095007 0.924201
vt 0.098136 0.970105
vt 0.056758 0.956779
vt 0.095007 0.924201
vt 0.153939 0.924562
vt 0.153601 0.975000
vt 0.098136 0.970105
vt 0.153939 0.924562
vt 0.220238 0.926584
vt 0.212456 0.974189
vt 0.153601 0.975000
vt 0.220238 0.926584
vt 0.278439 0.922363
vt 0.270002 0.971880
vt 0.212456 0.974189
vt 0.278439 0.922363
vt 0.319748 0.910403
vt 0.315708 0.953904
vt 0.270002 0.971880
vt 0.053861 0.383547
vt 0.091807 0.368334
vt 0.087000 0.415158
vt 0.042720 0.426266
vt 0.091807 0.368334
vt 0.145925 0.362124
vt 0.146134 0.409354
vt 0.087000 0.415158
vt 0.145925 0.362124
vt 0.206830 0.361886
vt 0.213970 0.409451
vt 0.146134 0.409354
vt 0.206830 0.361886
vt 0.264615 0.360354
vt 0.272341 0.410466
vt 0.213970 0.409451
vt 0.264615 0.360354
vt 0.309618 0.374970
vt 0.316182 0.416023
vt 0.272341 0.410466
vt 0.042720 0.426266
vt 0.087000 0.415158
vt 0.083846 0.472580
vt 0.031751 0.482051
vt 0.087000 0.415158
vt 0.146134 0.409354
vt 0.144768 0.479195
vt 0.083846 0.472580
vt 0.146134 0.409354
vt 0.213970 0.409451
vt 0.217777 0.481486
vt 0.144768 0.479195
vt 0.213970 0.409451
vt 0.272341 0.410466
vt 0.284950 0.470575
vt 0.217777 0.481486
vt 0.272341 0.410466
vt 0.316182 0.416023
vt 0.334133 0.464651
vt 0.284950 0.470575
vt 0.031751 0.482051
vt 0.083846 0.472580
vt 0.079560 0.546825
vt 0.025000 0.550929
vt 0.083846 0.472580
vt 0.144768 0.479195
vt 0.149932 0.551276
vt 0.079560 0.546825
vt 0.144768 0.479195
vt 0.217777 0.481486
vt 0.222002 0.550408
vt 0.149932 0.551276
vt 0.217777 0.481486
vt 0.284950 0.470575
vt 0.290414 0.541803
vt 0.222002 0.550408
vt 0.284950 0.470575
vt 0.334133 0.464651
vt 0.338328 0.529430
vt 0.290414 0.541803
vt 0.025000 0.550929
vt 0.079560 0.546825
vt 0.094747 0.605308
vt 0.040486 0.606844
vt 0.079560 0.546825
vt 0.149932 0.551276
vt 0.155077 0.612229
vt 0.094747 0.605308
vt 0.149932 0.551276
vt 0.222002 0.550408
vt 0.220090 0.613516
vt 0.155077 0.612229
vt 0.222002 0.550408
vt 0.290414 0.541803
vt 0.283196 0.604178
vt 0.220090 0.613516
vt 0.290414 0.541803
vt 0.338328 0.529430
vt 0.334429 0.590346
vt 0.283196 0.604178
vt 0.040486 0.606844
vt 0.094747 0.605308
vt 0.106677 0.652662
vt 0.058404 0.647050
vt 0.094747 0.605308
vt 0.155077 0.612229
vt 0.160352 0.656782
vt 0.106677 0.652662
vt 0.155077 0.612229
vt 0.220090 0.613516
vt 0.218196 0.661723
vt 0.160352 0.656782
vt 0.220090 0.613516
vt 0.283196 0.604178
vt 0.276581 0.654892
vt 0.218196 0.661723
vt 0.283196 0.604178
vt 0.334429 0.590346
vt 0.330126 0.644042
vt 0.276581 0.654892
vt 0.613877 0.700793
vt 0.625371 0.746053
vt 0.580020 0.735995
vt 0.573338 0.687024
vt 0.625371 0.746053
vt 0.638497 0.795688
vt 0.590294 0.797977
vt 0.580020 0.735995
vt 0.638497 0.795688
vt 0.640317 0.855511
vt 0.590645 0.865832
vt 0.590294 0.797977
vt 0.640317 0.855511
vt 0.649660 0.924736
vt 0.588656 0.928079
vt 0.590645 0.865832
vt 0.649660 0.924736
vt 0.633694 0.971182
vt 0.569266 0.970446
vt 0.588656 0.928079
vt 0.573338 0.687024
vt 0.580020 0.735995
vt 0.525469 0.729867
vt 0.520850 0.684643
vt 0.580020 0.735995
vt 0.590294 0.797977
vt 0.529976 0.791046
vt 0.525469 0.729867
vt 0.590294 0.797977
vt 0.590645 0.865832
vt 0.526432 0.866816
vt 0.529976 0.791046
vt 0.590645 0.865832
vt 0.588656 0.928079
vt 0.523025 0.930848
vt 0.526432 0.866816
vt 0.588656 0.928079
vt 0.569266 0.970446
vt 0.518220 0.973045
vt 0.523025 0.930848
vt 0.520850 0.684643
vt 0.525469 0.729867
vt 0.456704 0.723647
vt 0.457189 0.676654
vt 0.525469 0.729867
vt 0.529976 0.791046
vt 0.453445 0.792903
vt 0.456704 0.723647
vt 0.529976 0.791046
vt 0.526432 0.866816
vt 0.451386 0.865550
vt 0.453445 0.792903
vt 0.526432 0.866816
vt 0.523025 0.930848
vt 0.457294 0.926857
vt 0.451386 0.865550
vt 0.523025 0.930848
vt 0.518220 0.973045
vt 0.461658 0.972809
vt 0.457294 0.926857
vt 0.457189 0.676654
vt 0.456704 0.723647
vt 0.391534 0.726864
vt 0.396266 0.677082
vt 0.456704 0.723647
vt 0.453445 0.792903
vt 0.390818 0.793492
vt 0.391534 0.726864
vt 0.453445 0.792903
vt 0.451386 0.865550
vt 0.390411 0.858662
vt 0.390818 0.793492
vt 0.451386 0.865550
vt 0.457294 0.926857
vt 0.397751 0.916826
vt 0.390411 0.858662
vt 0.457294 0.926857
vt 0.461658 0.972809
vt 0.409977 0.964395
vt 0.397751 0.916826
vt 0.396266 0.677082
vt 0.391534 0.726864
vt 0.344435 0.744570
vt 0.344117 0.684428
vt 0.391534 0.726864
vt 0.390818 0.793492
vt 0.345740 0.802511
vt 0.344435 0.744570
vt 0.390818 0.793492
vt 0.390411 0.858662
vt 0.346710 0.858310
vt 0.345740 0.802511
vt 0.390411 0.858662
vt 0.397751 0.916826
vt 0.355029 0.910517
vt 0.346710 0.858310
vt 0.397751 0.916826
vt 0.409977 0.964395
vt 0.369470 0.952730
vt 0.355029 0.910517
vt 0.637727 0.371764
vt 0.641964 0.422663
vt 0.597238 0.410768
vt 0.575525 0.365798
vt 0.641964 0.422663
vt 0.658677 0.483752
vt 0.610135 0.475013
vt 0.597238 0.410768
vt 0.658677 0.483752
vt 0.651408 0.543263
vt 0.603391 0.543157
vt 0.610135 0.475013
vt 0.651408 0.543263
vt 0.640430 0.593536
vt 0.596367 0.601699
vt 0.603391 0.543157
vt 0.640430 0.593536
vt 0.628450 0.638509
vt 0.588822 0.651159
vt 0.596367 0.601699
vt 0.575525 0.365798
vt 0.597238 0.410768
vt 0.532158 0.406588
vt 0.520732 0.360354
vt 0.597238 0.410768
vt 0.610135 0.475013
vt 0.548759 0.473291
vt 0.532158 0.406588
vt 0.610135 0.475013
vt 0.603391 0.543157
vt 0.541294 0.552683
vt 0.548759 0.473291
vt 0.603391 0.543157
vt 0.596367 0.601699
vt 0.536193 0.613562
vt 0.541294 0.552683
vt 0.596367 0.601699
vt 0.588822 0.651159
vt 0.534426 0.660200
vt 0.536193 0.613562
vt 0.520732 0.360354
vt 0.532158 0.406588
vt 0.464835 0.412486
vt 0.461017 0.363391
vt 0.532158 0.406588
vt 0.548759 0.473291
vt 0.472016 0.478978
vt 0.464835 0.412486
vt 0.548759 0.473291
vt 0.541294 0.552683
vt 0.468239 0.554681
vt 0.472016 0.478978
vt 0.541294 0.552683
vt 0.536193 0.613562
vt 0.469645 0.614862
vt 0.468239 0.554681
vt 0.536193 0.613562
vt 0.534426 0.660200
vt 0.474213 0.659660
vt 0.469645 0.614862
vt 0.461017 0.363391
vt 0.464835 0.412486
vt 0.401736 0.425788
vt 0.408952 0.375247
vt 0.464835 0.412486
vt 0.472016 0.478978
vt 0.402026 0.490129
vt 0.401736 0.425788
vt 0.472016 0.478978
vt 0.468239 0.554681
vt 0.402615 0.557259
vt 0.402026 0.490129
vt 0.468239 0.554681
vt 0.469645 0.614862
vt 0.411835 0.613822
vt 0.402615 0.557259
vt 0.469645 0.614862
vt 0.474213 0.659660
vt 0.419628 0.655437
vt 0.411835 0.613822
vt 0.408952 0.375247
vt 0.401736 0.425788
vt 0.353307 0.432244
vt 0.368612 0.384514
vt 0.401736 0.425788
vt 0.402026 0.490129
vt 0.353260 0.492933
vt 0.353307 0.432244
vt 0.402026 0.490129
vt 0.402615 0.557259
vt 0.357594 0.552227
vt 0.353260 0.492933
vt 0.402615 0.557259
vt 0.411835 0.613822
vt 0.368989 0.604913
vt 0.357594 0.552227
vt 0.411835 0.613822
vt 0.419628 0.655437
vt 0.377028 0.646499
vt 0.368989 0.604913
vt 0.330266 0.295556
vt 0.289809 0.309976
vt 0.290750 0.262944
vt 0.336283 0.254324
vt 0.289809 0.309976
vt 0.230951 0.327420
vt 0.231852 0.278281
vt 0.290750 0.262944
vt 0.230951 0.327420
vt 0.169815 0.330492
vt 0.165394 0.282484
vt 0.231852 0.278281
vt 0.169815 0.330492
vt 0.114334 0.328015
vt 0.103706 0.278640
vt 0.165394 0.282484
vt 0.114334 0.328015
vt 0.073389 0.317832
vt 0.055456 0.276872
vt 0.103706 0.278640
vt 0.336283 0.254324
vt 0.290750 0.262944
vt 0.293891 0.202586
vt 0.341562 0.199319
vt 0.290750 0.262944
vt 0.231852 0.278281
vt 0.227615 0.211976
vt 0.293891 0.202586
vt 0.231852 0.278281
vt 0.165394 0.282484
vt 0.156018 0.214504
vt 0.227615 0.211976
vt 0.165394 0.282484
vt 0.103706 0.278640
vt 0.084884 0.213535
vt 0.156018 0.214504
vt 0.103706 0.278640
vt 0.055456 0.276872
vt 0.037920 0.218254
vt 0.084884 0.213535
vt 0.341562 0.199319
vt 0.293891 0.202586
vt 0.290542 0.135865
vt 0.339364 0.137807
vt 0.293891 0.202586
vt 0.227615 0.211976
vt 0.223980 0.135984
vt 0.290542 0.135865
vt 0.227615 0.211976
vt 0.156018 0.214504
vt 0.149039 0.142357
vt 0.223980 0.135984
vt 0.156018 0.214504
vt 0.084884 0.213535
vt 0.086456 0.144551
vt 0.149039 0.142357
vt 0.084884 0.213535
vt 0.037920 0.218254
vt 0.025000 0.153195
vt 0.086456 0.144551
vt 0.339364 0.137807
vt 0.290542 0.135865
vt 0.275911 0.074401
vt 0.320297 0.083162
vt 0.290542 0.135865
vt 0.223980 0.135984
vt 0.214291 0.073485
vt 0.275911 0.074401
vt 0.223980 0.135984
vt 0.149039 0.142357
vt 0.146582 0.080964
vt 0.214291 0.073485
vt 0.149039 0.142357
vt 0.086456 0.144551
vt 0.087862 0.089444
vt 0.146582 0.080964
vt 0.086456 0.144551
vt 0.025000 0.153195
vt 0.034915 0.097870
vt 0.087862 0.089444
vt 0.320297 0.083162
vt 0.275911 0.074401
vt 0.263716 0.030880
vt 0.305789 0.040819
vt 0.275911 0.074401
vt 0.214291 0.073485
vt 0.206432 0.025000
vt 0.263716 0.030880
vt 0.214291 0.073485
vt 0.146582 0.080964
vt 0.142582 0.028722
vt 0.206432 0.025000
vt 0.146582 0.080964
vt 0.087862 0.089444
vt 0.080529 0.025848
vt 0.142582 0.028722
vt 0.087862 0.089444
vt 0.034915 0.097870
vt 0.042376 0.059238
vt 0.080529 0.025848
# num_uvs: 600

g rockLP001
s 1

usemtl skin
f 1/1/1 2/2/2 3/3/3 4/4/4
f 4/5/4 3/6/3 5/7/5 6/8/6
f 6/9/6 5/10/5 7/11/7 8/12/8
f 8/13/8 7/14/7 9/15/9 10/16/10
f 10/17/10 9/18/9 11/19/11 12/20/12
f 2/21/2 13/22/13 14/23/14 3/24/3
f 3/25/3 14/26/14 15/27/15 5/28/5
f 5/29/5 15/30/15 16/31/16 7/32/7
f 7/33/7 16/34/16 17/35/17 9/36/9
f 9/37/9 17/38/17 18/39/18 11/40/11
f 13/41/13 19/42/19 20/43/20 14/44/14
f 14/45/14 20/46/20 21/47/21 15/48/15
f 15/49/15 21/50/21 22/51/22 16/52/16
f 16/53/16 22/54/22 23/55/23 17/56/17
f 17/57/17 23/58/23 24/59/24 18/60/18
f 19/61/19 25/62/25 26/63/26 20/64/20
f 20/65/20 26/66/26 27/67/27 21/68/21
f 21/69/21 27/70/27 28/71/28 22/72/22
f 22/73/22 28/74/28 29/75/29 23/76/23
f 23/77/23 29/78/29 30/79/30 24/80/24
f 25/81/25 31/82/31 32/83/32 26/84/26
f 26/85/26 32/86/32 33/87/33 27/88/27
f 27/89/27 33/90/33 34/91/34 28/92/28
f 28/93/28 34/94/34 35/95/35 29/96/29
f 29/97/29 35/98/35 36/99/36 30/100/30
f 37/101/37 38/102/38 39/103/39 40/104/40
f 38/105/38 41/106/41 42/107/42 39/108/39
f 41/109/41 43/110/43 44/111/44 42/112/42
f 43/113/43 45/114/45 46/115/46 44/116/44
f 45/117/45 47/118/47 48/119/48 46/120/46
f 40/121/40 39/122/39 49/123/49 50/124/50
f 39/125/39 42/126/42 51/127/51 49/128/49
f 42/129/42 44/130/44 52/131/52 51/132/51
f 44/133/44 46/134/46 53/135/53 52/136/52
f 46/137/46 48/138/48 54/139/54 53/140/53
f 50/141/50 49/142/49 55/143/55 56/144/56
f 49/145/49 51/146/51 57/147/57 55/148/55
f 51/149/51 52/150/52 58/151/58 57/152/57
f 52/153/52 53/154/53 59/155/59 58/156/58
f 53/157/53 54/158/54 60/159/60 59/160/59
f 56/161/56 55/162/55 61/163/61 62/164/62
f 55/165/55 57/166/57 63/167/63 61/168/61
f 57/169/57 58/170/58 64/171/64 63/172/63
f 58/173/58 59/174/59 65/175/65 64/176/64
f 59/177/59 60/178/60 66/179/66 65/180/65
f 62/181/62 61/182/61 67/183/67 68/184/68
f 61/185/61 63/186/63 69/187/69 67/188/67
f 63/189/63 64/190/64 70/191/70 69/192/69
f 64/193/64 65/194/65 71/195/71 70/196/70
f 65/197/65 66/198/66 72/199/72 71/200/71
f 1/201/1 4/202/4 73/203/73 74/204/74
f 4/205/4 6/206/6 75/207/75 73/208/73
f 6/209/6 8/210/8 76/211/76 75/212/75
f 8/213/8 10/214/10 77/215/77 76/216/76
f 10/217/10 12/218/12 78/219/78 77/220/77
f 74/221/74 73/222/73 79/223/79 80/224/80
f 73/225/73 75/226/75 81/227/81 79/228/79
f 75/229/75 76/230/76 82/231/82 81/232/81
f 76/233/76 77/234/77 83/235/83 82/236/82
f 77/237/77 78/238/78 84/239/84 83/240/83
f 80/241/80 79/242/79 85/243/85 86/244/86
f 79/245/79 81/246/81 87/247/87 85/248/85
f 81/249/81 82/250/82 88/251/88 87/252/87
f 82/253/82 83/254/83 89/255/89 88/256/88
f 83/257/83 84/258/84 90/259/90 89/260/89
f 86/261/86 85/262/85 91/263/91 92/264/92
f 85/265/85 87/266/87 93/267/93 91/268/91
f 87/269/87 88/270/88 94/271/94 93/272/93
f 88/273/88 89/274/89 95/275/95 94/276/94
f 89/277/89 90/278/90 96/279/96 95/280/95
f 92/281/92 91/282/91 38/283/38 37/284/37
f 91/285/91 93/286/93 41/287/41 38/288/38
f 93/289/93 94/290/94 43/291/43 41/292/41
f 94/293/94 95/294/95 45/295/45 43/296/43
f 95/297/95 96/298/96 47/299/47 45/300/45
f 12/301/12 11/302/11 97/303/97 78/304/78
f 11/305/11 18/306/18 98/307/98 97/308/97
f 18/309/18 24/310/24 99/311/99 98/312/98
f 24/313/24 30/314/30 100/315/100 99/316/99
f 30/317/30 36/318/36 101/319/101 100/320/100
f 78/321/78 97/322/97 102/323/102 84/324/84
f 97/325/97 98/326/98 103/327/103 102/328/102
f 98/329/98 99/330/99 104/331/104 103/332/103
f 99/333/99 100/334/100 105/335/105 104/336/104
f 100/337/100 101/338/101 106/339/106 105/340/105
f 84/341/84 102/342/102 107/343/107 90/344/90
f 102/345/102 103/346/103 108/347/108 107/348/107
f 103/349/103 104/350/104 109/351/109 108/352/108
f 104/353/104 105/354/105 110/355/110 109/356/109
f 105/357/105 106/358/106 111/359/111 110/360/110
f 90/361/90 107/362/107 112/363/112 96/364/96
f 107/365/107 108/366/108 113/367/113 112/368/112
f 108/369/108 109/370/109 114/371/114 113/372/113
f 109/373/109 110/374/110 115/375/115 114/376/114
f 110/377/110 111/378/111 116/379/116 115/380/115
f 96/381/96 112/382/112 48/383/48 47/384/47
f 112/385/112 113/386/113 54/387/54 48/388/48
f 113/389/113 114/390/114 60/391/60 54/392/54
f 114/393/114 115/394/115 66/395/66 60/396/60
f 115/397/115 116/398/116 72/399/72 66/400/66
f 36/401/36 35/402/35 117/403/117 101/404/101
f 35/405/35 34/406/34 118/407/118 117/408/117
f 34/409/34 33/410/33 119/411/119 118/412/118
f 33/413/33 32/414/32 120/415/120 119/416/119
f 32/417/32 31/418/31 121/419/121 120/420/120
f 101/421/101 117/422/117 122/423/122 106/424/106
f 117/425/117 118/426/118 123/427/123 122/428/122
f 118/429/118 119/430/119 124/431/124 123/432/123
f 119/433/119 120/434/120 125/435/125 124/436/124
f 120/437/120 121/438/121 126/439/126 125/440/125
f 106/441/106 122/442/122 127/443/127 111/444/111
f 122/445/122 123/446/123 128/447/128 127/448/127
f 123/449/123 124/450/124 129/451/129 128/452/128
f 124/453/124 125/454/125 130/455/130 129/456/129
f 125/457/125 126/458/126 131/459/131 130/460/130
f 111/461/111 127/462/127 132/463/132 116/464/116
f 127/465/127 128/466/128 133/467/133 132/468/132
f 128/469/128 129/470/129 134/471/134 133/472/133
f 129/473/129 130/474/130 135/475/135 134/476/134
f 130/477/130 131/478/131 136/479/136 135/480/135
f 116/481/116 132/482/132 71/483/71 72/484/72
f 132/485/132 133/486/133 70/487/70 71/488/71
f 133/489/133 134/490/134 69/491/69 70/492/70
f 134/493/134 135/494/135 67/495/67 69/496/69
f 135/497/135 136/498/136 68/499/68 67/500/67
f 31/501/31 25/502/25 137/503/137 121/504/121
f 25/505/25 19/506/19 138/507/138 137/508/137
f 19/509/19 13/510/13 139/511/139 138/512/138
f 13/513/13 2/514/2 140/515/140 139/516/139
f 2/517/2 1/518/1 74/519/74 140/520/140
f 121/521/121 137/522/137 141/523/141 126/524/126
f 137/525/137 138/526/138 142/527/142 141/528/141
f 138/529/138 139/530/139 143/531/143 142/532/142
f 139/533/139 140/534/140 144/535/144 143/536/143
f 140/537/140 74/538/74 80/539/80 144/540/144
f 126/541/126 141/542/141 145/543/145 131/544/131
f 141/545/141 142/546/142 146/547/146 145/548/145
f 142/549/142 143/550/143 147/551/147 146/552/146
f 143/553/143 144/554/144 148/555/148 147/556/147
f 144/557/144 80/558/80 86/559/86 148/560/148
f 131/561/131 145/562/145 149/563/149 136/564/136
f 145/565/145 146/566/146 150/567/150 149/568/149
f 146/569/146 147/570/147 151/571/151 150/572/150
f 147/573/147 148/574/148 152/575/152 151/576/151
f 148/577/148 86/578/86 92/579/92 152/580/152
f 136/581/136 149/582/149 62/583/62 68/584/68
f 149/585/149 150/586/150 56/587/56 62/588/62
f 150/589/150 151/590/151 50/591/50 56/592/56
f 151/593/151 152/594/152 40/595/40 50/596/50
f 152/597/152 92/598/92 37/599/37 40/600/40
# num_faces: 150

