# Wavefront OBJ file
# Creator: Ultimate Unwrap3D Pro v3.33
# Website: http://www.unwrap3d.com
# Time: Sun Apr 06 01:23:33 2014
# num_vertices: 152
# num_vertex_normals: 152
# num_uvs: 600
# num_faces: 150
# num_groups: 1

mtllib rock6.mtl

v -0.618795 -0.618713 0.396991
v -0.685910 -0.435264 0.284821
v -0.490869 -0.490512 0.163840
v -0.433161 -0.684631 0.308199
v -0.205657 -0.579574 0.046824
v -0.161180 -0.763639 0.266885
v 0.179129 -0.594539 0.020966
v 0.139426 -0.789081 0.254101
v 0.536981 -0.538172 0.130963
v 0.451485 -0.784161 0.242906
v 0.775829 -0.456165 0.259359
v 0.668405 -0.679174 0.349548
v -0.858712 -0.200964 0.119583
v -0.591732 -0.217483 0.000071
v -0.218221 -0.217911 -0.139883
v 0.202134 -0.197205 0.003796
v 0.538597 -0.186801 0.091572
v 0.779862 -0.161352 0.210867
v -0.849042 0.138544 0.131982
v -0.624791 0.190792 -0.046656
v -0.223510 0.241745 -0.142025
v 0.201611 0.201678 0.003008
v 0.519504 0.169496 0.106734
v 0.761076 0.149396 0.221581
v -0.756199 0.438971 0.231586
v -0.536596 0.541713 0.101466
v -0.206867 0.620478 -0.059100
v 0.183041 0.563568 0.035025
v 0.485253 0.485253 0.160461
v 0.744019 0.442191 0.259172
v -0.644570 0.624290 0.352299
v -0.434461 0.743039 0.240861
v -0.158365 0.779445 0.182198
v 0.137972 0.727253 0.232959
v 0.394008 0.664322 0.310902
v 0.598981 0.598991 0.357978
v -0.745976 -0.745455 1.690613
v -0.522474 -0.852428 1.796469
v -0.592654 -0.592716 1.928398
v -0.824807 -0.499248 1.756511
v -0.205975 -0.906094 1.842663
v -0.243336 -0.680332 2.022830
v 0.112052 -0.824919 1.799809
v 0.133541 -0.592133 1.889296
v 0.361328 -0.746173 1.717739
v 0.406672 -0.512910 1.784782
v 0.568129 -0.663600 1.638424
v 0.637261 -0.444783 1.679439
v -0.643083 -0.223684 1.929737
v -0.866282 -0.195063 1.761629
v -0.288509 -0.288145 2.103764
v 0.122880 -0.273062 2.006961
v 0.434121 -0.204839 1.857899
v 0.685671 -0.189213 1.750886
v -0.601021 0.141167 1.896489
v -0.822545 0.111810 1.729815
v -0.286013 0.136659 2.049609
v 0.129355 0.129369 1.985630
v 0.464768 0.142787 1.868291
v 0.689229 0.112122 1.747469
v -0.536197 0.448850 1.817824
v -0.787438 0.392393 1.710354
v -0.208122 0.444514 1.872842
v 0.146095 0.473570 1.873053
v 0.409893 0.409958 1.770122
v 0.605297 0.364185 1.650503
v -0.440197 0.627808 1.638309
v -0.677375 0.586997 1.616310
v -0.178563 0.648306 1.675838
v 0.114066 0.702774 1.733986
v 0.362550 0.603127 1.659128
v 0.536048 0.536049 1.569398
v -0.518346 -0.833343 0.513508
v -0.705152 -0.705125 0.589347
v -0.199052 -0.900254 0.486750
v 0.173040 -0.949034 0.481234
v 0.518360 -0.915056 0.488598
v 0.745651 -0.783705 0.555016
v -0.568954 -0.947152 0.795430
v -0.791306 -0.790499 0.843192
v -0.235830 -1.132968 0.807769
v 0.197696 -1.115093 0.829579
v 0.578302 -0.999137 0.841684
v 0.823570 -0.825584 0.859714
v -0.580445 -0.979232 1.169929
v -0.794123 -0.793301 1.159457
v -0.207608 -1.047864 1.220489
v 0.191334 -1.057725 1.239991
v 0.547471 -0.959120 1.210384
v 0.800220 -0.842238 1.185749
v -0.560983 -0.941191 1.510639
v -0.796972 -0.796224 1.451061
v -0.210126 -0.968142 1.568715
v 0.154360 -0.969880 1.592726
v 0.458789 -0.880435 1.519937
v 0.691626 -0.777393 1.473802
v 0.860174 -0.509968 0.504874
v 1.052919 -0.190921 0.393050
v 0.994387 0.217433 0.415528
v 0.894307 0.566059 0.459333
v 0.709511 0.709522 0.553560
v 0.974471 -0.605256 0.809706
v 1.034840 -0.224678 0.803321
v 1.008314 0.198124 0.808042
v 0.894204 0.553376 0.823985
v 0.796466 0.796488 0.839171
v 0.987071 -0.640532 1.213060
v 0.946722 -0.237366 1.212154
v 0.903026 0.155540 1.202959
v 0.827328 0.492183 1.185747
v 0.741407 0.741413 1.147765
v 0.813062 -0.571088 1.552018
v 0.922139 -0.246741 1.596417
v 0.860226 0.132617 1.557961
v 0.764202 0.441947 1.493422
v 0.663366 0.663366 1.394334
v 0.480842 0.787961 0.502601
v 0.193302 0.862055 0.422987
v -0.158974 0.883655 0.434656
v -0.479143 0.796115 0.483708
v -0.714304 0.682524 0.557007
v 0.544088 0.884186 0.797143
v 0.195786 0.957842 0.741964
v -0.199529 0.953133 0.773878
v -0.539317 0.875988 0.798716
v -0.742372 0.735941 0.827412
v 0.523610 0.890826 1.164171
v 0.168554 0.947399 1.144010
v -0.237200 0.970263 1.174053
v -0.575779 0.880525 1.159276
v -0.769389 0.744913 1.121539
v 0.441844 0.765886 1.465685
v 0.129928 0.864140 1.501237
v -0.232876 0.829168 1.503034
v -0.528026 0.753537 1.445168
v -0.781462 0.698021 1.419454
v -0.851215 0.477554 0.470237
v -0.980402 0.181515 0.377222
v -1.000608 -0.214024 0.368547
v -0.841336 -0.524402 0.488116
v -0.899072 0.512919 0.799712
v -1.072980 0.189574 0.751379
v -1.068815 -0.224581 0.768553
v -0.954074 -0.570279 0.808027
v -0.965422 0.555482 1.162120
v -1.163231 0.215648 1.182096
v -1.022460 -0.202616 1.164301
v -0.894673 -0.521441 1.163350
v -0.975431 0.526186 1.535022
v -1.019790 0.166949 1.535595
v -0.965803 -0.212785 1.504213
v -0.862500 -0.525508 1.475145
# num_vertices: 152

vn -0.506143 -0.614738 -0.604910
vn -0.534459 -0.649761 -0.540523
vn -0.445017 -0.628918 -0.637513
vn -0.404110 -0.654761 -0.638736
vn -0.235217 -0.622890 -0.746110
vn -0.197098 -0.743911 -0.638552
vn 0.032554 -0.552009 -0.833203
vn -0.051255 -0.800805 -0.596728
vn 0.367445 -0.385946 -0.846186
vn 0.292712 -0.721632 -0.627349
vn 0.707588 -0.317189 -0.631436
vn 0.602107 -0.564566 -0.564564
vn -0.673249 -0.376613 -0.636316
vn -0.460541 -0.370345 -0.806689
vn -0.152306 -0.318549 -0.935590
vn 0.206814 -0.134458 -0.969097
vn 0.375036 -0.024557 -0.926685
vn 0.639425 -0.011405 -0.768769
vn -0.724963 0.234964 -0.647472
vn -0.428775 0.197245 -0.881616
vn 0.013128 0.130700 -0.991335
vn 0.307811 0.071557 -0.948753
vn 0.362713 0.089676 -0.927576
vn 0.512762 0.114727 -0.850831
vn -0.684601 0.537803 -0.492026
vn -0.494484 0.553660 -0.670035
vn -0.035472 0.569005 -0.821569
vn 0.353695 0.489793 -0.796871
vn 0.403240 0.463782 -0.788862
vn 0.446509 0.453464 -0.771362
vn -0.606174 0.696101 -0.384702
vn -0.466275 0.765580 -0.443255
vn -0.042935 0.819938 -0.570839
vn 0.316048 0.750412 -0.580514
vn 0.372479 0.714803 -0.591875
vn 0.340114 0.700538 -0.627351
vn -0.743778 -0.509613 0.432538
vn -0.385909 -0.703130 0.597229
vn -0.423070 -0.259111 0.868259
vn -0.792728 -0.275848 0.543591
vn -0.026408 -0.810205 0.585551
vn 0.036599 -0.336302 0.941043
vn 0.263300 -0.710799 0.652256
vn 0.360890 -0.352876 0.863271
vn 0.411679 -0.528099 0.742719
vn 0.430430 -0.308836 0.848145
vn 0.444052 -0.509185 0.737257
vn 0.453696 -0.345662 0.821387
vn -0.480152 0.040181 0.876265
vn -0.724356 -0.107209 0.681039
vn -0.027679 0.016860 0.999475
vn 0.362511 -0.073233 0.929098
vn 0.428322 -0.143213 0.892205
vn 0.473277 -0.100740 0.875134
vn -0.508222 0.184440 0.841245
vn -0.644150 0.055321 0.762896
vn -0.123231 0.271613 0.954484
vn 0.279603 0.232232 0.931606
vn 0.408666 0.165560 0.897542
vn 0.543438 0.217078 0.810896
vn -0.406879 0.458186 0.790263
vn -0.527386 0.406173 0.746249
vn -0.112175 0.573010 0.811835
vn 0.208474 0.505398 0.837324
vn 0.438379 0.430072 0.789216
vn 0.539388 0.448122 0.712915
vn -0.267859 0.678748 0.683778
vn -0.325423 0.702325 0.633119
vn -0.135722 0.722503 0.677915
vn 0.147624 0.698442 0.700275
vn 0.429680 0.557810 0.710087
vn 0.485006 0.520324 0.702874
vn -0.419805 -0.750206 -0.510838
vn -0.576834 -0.655197 -0.487831
vn -0.184258 -0.816706 -0.546846
vn -0.029565 -0.842663 -0.537629
vn 0.312144 -0.826529 -0.468418
vn 0.676727 -0.614107 -0.406095
vn -0.492651 -0.836147 -0.241151
vn -0.693251 -0.705689 -0.146309
vn -0.210624 -0.948675 -0.235911
vn 0.080831 -0.979189 -0.186158
vn 0.393246 -0.911988 -0.116774
vn 0.731562 -0.674007 -0.102622
vn -0.488428 -0.872604 0.001035
vn -0.765985 -0.638892 0.071294
vn -0.175710 -0.977512 0.116601
vn 0.141068 -0.968076 0.207194
vn 0.392325 -0.893263 0.219459
vn 0.634051 -0.738375 0.229741
vn -0.397769 -0.899256 0.181986
vn -0.816652 -0.561101 0.135076
vn -0.093775 -0.971123 0.219377
vn 0.149238 -0.931219 0.332506
vn 0.374480 -0.802435 0.464611
vn 0.495997 -0.685831 0.532563
vn 0.816729 -0.409343 -0.406683
vn 0.892171 -0.123392 -0.434517
vn 0.879190 0.173453 -0.443778
vn 0.725016 0.549254 -0.415538
vn 0.436108 0.795190 -0.421287
vn 0.876458 -0.442444 -0.189907
vn 0.987807 -0.144230 -0.058609
vn 0.972476 0.191929 0.132111
vn 0.887533 0.441218 0.132710
vn 0.600736 0.798978 0.027392
vn 0.911017 -0.347539 0.221956
vn 0.984658 0.026571 0.172459
vn 0.970137 0.170592 0.172431
vn 0.927431 0.302610 0.219772
vn 0.710809 0.638926 0.294149
vn 0.660234 -0.370571 0.653275
vn 0.798762 0.031111 0.600842
vn 0.864870 0.231057 0.445659
vn 0.798340 0.384774 0.463252
vn 0.621568 0.560410 0.547351
vn 0.359707 0.792300 -0.492820
vn 0.248464 0.842718 -0.477589
vn -0.052155 0.920474 -0.387309
vn -0.395136 0.868855 -0.298258
vn -0.628872 0.718050 -0.298202
vn 0.309234 0.941524 -0.133812
vn 0.146396 0.976209 -0.159953
vn -0.120961 0.982716 -0.140133
vn -0.401252 0.900564 -0.167275
vn -0.674822 0.718497 -0.168452
vn 0.297882 0.917322 0.264174
vn 0.099522 0.980713 0.168221
vn -0.106637 0.983070 0.149004
vn -0.426415 0.887631 0.174014
vn -0.679729 0.728329 0.086635
vn 0.367034 0.733053 0.572642
vn 0.104504 0.867351 0.486602
vn -0.144707 0.855077 0.497899
vn -0.347897 0.761979 0.546219
vn -0.468534 0.766753 0.438823
vn -0.795199 0.528146 -0.297858
vn -0.913509 0.237289 -0.330448
vn -0.891613 -0.299783 -0.339346
vn -0.671303 -0.632306 -0.386706
vn -0.831227 0.529193 -0.170344
vn -0.944932 0.247625 -0.213975
vn -0.972454 -0.197636 -0.123588
vn -0.847314 -0.529676 -0.038757
vn -0.811651 0.581907 -0.051052
vn -0.983304 0.180627 -0.022087
vn -0.961221 -0.257396 0.099002
vn -0.906714 -0.396356 0.144122
vn -0.706021 0.579335 0.407316
vn -0.868923 0.031348 0.493953
vn -0.872996 -0.298543 0.385682
vn -0.927605 -0.322984 0.187698
# num_vertex_normals: 152

vt 0.312722 0.301112
vt 0.272254 0.308950
vt 0.273458 0.266066
vt 0.318074 0.260778
vt 0.318074 0.260778
vt 0.273458 0.266066
vt 0.279802 0.208968
vt 0.331034 0.206523
vt 0.331034 0.206523
vt 0.279802 0.208968
vt 0.279318 0.142157
vt 0.332864 0.146452
vt 0.332864 0.146452
vt 0.279318 0.142157
vt 0.273259 0.076569
vt 0.323215 0.088087
vt 0.323215 0.088087
vt 0.273259 0.076569
vt 0.263055 0.026449
vt 0.310038 0.040945
vt 0.272254 0.308950
vt 0.214201 0.329934
vt 0.215690 0.277865
vt 0.273458 0.266066
vt 0.273458 0.266066
vt 0.215690 0.277865
vt 0.212327 0.209469
vt 0.279802 0.208968
vt 0.279802 0.208968
vt 0.212327 0.209469
vt 0.210826 0.133714
vt 0.279318 0.142157
vt 0.279318 0.142157
vt 0.210826 0.133714
vt 0.209490 0.073238
vt 0.273259 0.076569
vt 0.273259 0.076569
vt 0.209490 0.073238
vt 0.206444 0.025000
vt 0.263055 0.026449
vt 0.214201 0.329934
vt 0.150014 0.330356
vt 0.144625 0.280125
vt 0.215690 0.277865
vt 0.215690 0.277865
vt 0.144625 0.280125
vt 0.136734 0.209981
vt 0.212327 0.209469
vt 0.212327 0.209469
vt 0.136734 0.209981
vt 0.140891 0.132634
vt 0.210826 0.133714
vt 0.210826 0.133714
vt 0.140891 0.132634
vt 0.144867 0.075002
vt 0.209490 0.073238
vt 0.209490 0.073238
vt 0.144867 0.075002
vt 0.147367 0.027153
vt 0.206444 0.025000
vt 0.150014 0.330356
vt 0.088345 0.318737
vt 0.077064 0.270469
vt 0.144625 0.280125
vt 0.144625 0.280125
vt 0.077064 0.270469
vt 0.073818 0.207056
vt 0.136734 0.209981
vt 0.136734 0.209981
vt 0.073818 0.207056
vt 0.076932 0.138821
vt 0.140891 0.132634
vt 0.140891 0.132634
vt 0.076932 0.138821
vt 0.086003 0.080581
vt 0.144867 0.075002
vt 0.144867 0.075002
vt 0.086003 0.080581
vt 0.091835 0.030017
vt 0.147367 0.027153
vt 0.088345 0.318737
vt 0.043726 0.306919
vt 0.030597 0.258410
vt 0.077064 0.270469
vt 0.077064 0.270469
vt 0.030597 0.258410
vt 0.025000 0.201313
vt 0.073818 0.207056
vt 0.073818 0.207056
vt 0.025000 0.201313
vt 0.030026 0.139515
vt 0.076932 0.138821
vt 0.076932 0.138821
vt 0.030026 0.139515
vt 0.040203 0.088112
vt 0.086003 0.080581
vt 0.086003 0.080581
vt 0.040203 0.088112
vt 0.052528 0.049340
vt 0.091835 0.030017
vt 0.302900 0.695401
vt 0.318509 0.743381
vt 0.265047 0.736818
vt 0.253919 0.683899
vt 0.318509 0.743381
vt 0.327877 0.804992
vt 0.277816 0.799530
vt 0.265047 0.736818
vt 0.327877 0.804992
vt 0.315647 0.866376
vt 0.270247 0.870224
vt 0.277816 0.799530
vt 0.315647 0.866376
vt 0.305055 0.915284
vt 0.259837 0.922962
vt 0.270247 0.870224
vt 0.305055 0.915284
vt 0.293724 0.957038
vt 0.251426 0.969793
vt 0.259837 0.922962
vt 0.253919 0.683899
vt 0.265047 0.736818
vt 0.200050 0.725003
vt 0.195770 0.675096
vt 0.265047 0.736818
vt 0.277816 0.799530
vt 0.210633 0.793200
vt 0.200050 0.725003
vt 0.277816 0.799530
vt 0.270247 0.870224
vt 0.209611 0.865380
vt 0.210633 0.793200
vt 0.270247 0.870224
vt 0.259837 0.922962
vt 0.200202 0.925736
vt 0.209611 0.865380
vt 0.259837 0.922962
vt 0.251426 0.969793
vt 0.198790 0.975000
vt 0.200202 0.925736
vt 0.195770 0.675096
vt 0.200050 0.725003
vt 0.134778 0.731200
vt 0.136987 0.681046
vt 0.200050 0.725003
vt 0.210633 0.793200
vt 0.138776 0.792238
vt 0.134778 0.731200
vt 0.210633 0.793200
vt 0.209611 0.865380
vt 0.137886 0.865909
vt 0.138776 0.792238
vt 0.209611 0.865380
vt 0.200202 0.925736
vt 0.135071 0.928776
vt 0.137886 0.865909
vt 0.200202 0.925736
vt 0.198790 0.975000
vt 0.138852 0.974981
vt 0.135071 0.928776
vt 0.136987 0.681046
vt 0.134778 0.731200
vt 0.078306 0.740881
vt 0.084816 0.690424
vt 0.134778 0.731200
vt 0.138776 0.792238
vt 0.077262 0.802189
vt 0.078306 0.740881
vt 0.138776 0.792238
vt 0.137886 0.865909
vt 0.073471 0.867663
vt 0.077262 0.802189
vt 0.137886 0.865909
vt 0.135071 0.928776
vt 0.081767 0.920644
vt 0.073471 0.867663
vt 0.135071 0.928776
vt 0.138852 0.974981
vt 0.084424 0.963607
vt 0.081767 0.920644
vt 0.084816 0.690424
vt 0.078306 0.740881
vt 0.030462 0.749925
vt 0.042666 0.705515
vt 0.078306 0.740881
vt 0.077262 0.802189
vt 0.025994 0.803317
vt 0.030462 0.749925
vt 0.077262 0.802189
vt 0.073471 0.867663
vt 0.025000 0.864008
vt 0.025994 0.803317
vt 0.073471 0.867663
vt 0.081767 0.920644
vt 0.039819 0.916565
vt 0.025000 0.864008
vt 0.081767 0.920644
vt 0.084424 0.963607
vt 0.047205 0.954835
vt 0.039819 0.916565
vt 0.048692 0.381328
vt 0.087076 0.367933
vt 0.079863 0.415872
vt 0.037115 0.422681
vt 0.087076 0.367933
vt 0.141913 0.361461
vt 0.138592 0.408226
vt 0.079863 0.415872
vt 0.141913 0.361461
vt 0.200802 0.359914
vt 0.206450 0.409805
vt 0.138592 0.408226
vt 0.200802 0.359914
vt 0.260900 0.361724
vt 0.268429 0.412666
vt 0.206450 0.409805
vt 0.260900 0.361724
vt 0.308700 0.374988
vt 0.316995 0.419301
vt 0.268429 0.412666
vt 0.037115 0.422681
vt 0.079863 0.415872
vt 0.075208 0.471305
vt 0.026209 0.476319
vt 0.079863 0.415872
vt 0.138592 0.408226
vt 0.138516 0.476251
vt 0.075208 0.471305
vt 0.138592 0.408226
vt 0.206450 0.409805
vt 0.210283 0.477179
vt 0.138516 0.476251
vt 0.206450 0.409805
vt 0.268429 0.412666
vt 0.277914 0.476954
vt 0.210283 0.477179
vt 0.268429 0.412666
vt 0.316995 0.419301
vt 0.331198 0.477107
vt 0.277914 0.476954
vt 0.026209 0.476319
vt 0.075208 0.471305
vt 0.075802 0.538739
vt 0.025000 0.537990
vt 0.075208 0.471305
vt 0.138516 0.476251
vt 0.142544 0.547602
vt 0.075802 0.538739
vt 0.138516 0.476251
vt 0.210283 0.477179
vt 0.212567 0.548867
vt 0.142544 0.547602
vt 0.210283 0.477179
vt 0.277914 0.476954
vt 0.277308 0.542608
vt 0.212567 0.548867
vt 0.277914 0.476954
vt 0.331198 0.477107
vt 0.327229 0.538010
vt 0.277308 0.542608
vt 0.025000 0.537990
vt 0.075802 0.538739
vt 0.080530 0.599730
vt 0.029606 0.593760
vt 0.075802 0.538739
vt 0.142544 0.547602
vt 0.143840 0.610125
vt 0.080530 0.599730
vt 0.142544 0.547602
vt 0.212567 0.548867
vt 0.208826 0.612029
vt 0.143840 0.610125
vt 0.212567 0.548867
vt 0.277308 0.542608
vt 0.265911 0.600641
vt 0.208826 0.612029
vt 0.277308 0.542608
vt 0.327229 0.538010
vt 0.312482 0.594402
vt 0.265911 0.600641
vt 0.029606 0.593760
vt 0.080530 0.599730
vt 0.086429 0.654065
vt 0.038834 0.639716
vt 0.080530 0.599730
vt 0.143840 0.610125
vt 0.145639 0.660317
vt 0.086429 0.654065
vt 0.143840 0.610125
vt 0.208826 0.612029
vt 0.206145 0.656960
vt 0.145639 0.660317
vt 0.208826 0.612029
vt 0.265911 0.600641
vt 0.256570 0.646518
vt 0.206145 0.656960
vt 0.265911 0.600641
vt 0.312482 0.594402
vt 0.299195 0.635752
vt 0.256570 0.646518
vt 0.622530 0.373235
vt 0.636254 0.420056
vt 0.588538 0.414420
vt 0.579274 0.360668
vt 0.636254 0.420056
vt 0.654425 0.474400
vt 0.599323 0.477959
vt 0.588538 0.414420
vt 0.654425 0.474400
vt 0.656846 0.537332
vt 0.601406 0.545740
vt 0.599323 0.477959
vt 0.656846 0.537332
vt 0.644550 0.593862
vt 0.596709 0.606685
vt 0.601406 0.545740
vt 0.644550 0.593862
vt 0.638739 0.638337
vt 0.591604 0.648911
vt 0.596709 0.606685
vt 0.579274 0.360668
vt 0.588538 0.414420
vt 0.529246 0.407630
vt 0.519974 0.360101
vt 0.588538 0.414420
vt 0.599323 0.477959
vt 0.531324 0.474521
vt 0.529246 0.407630
vt 0.599323 0.477959
vt 0.601406 0.545740
vt 0.532636 0.548277
vt 0.531324 0.474521
vt 0.601406 0.545740
vt 0.596709 0.606685
vt 0.533117 0.613647
vt 0.532636 0.548277
vt 0.596709 0.606685
vt 0.591604 0.648911
vt 0.533746 0.660216
vt 0.533117 0.613647
vt 0.519974 0.360101
vt 0.529246 0.407630
vt 0.460830 0.407757
vt 0.457201 0.359914
vt 0.529246 0.407630
vt 0.531324 0.474521
vt 0.459944 0.477582
vt 0.460830 0.407757
vt 0.531324 0.474521
vt 0.532636 0.548277
vt 0.461660 0.547866
vt 0.459944 0.477582
vt 0.532636 0.548277
vt 0.533117 0.613647
vt 0.465958 0.609395
vt 0.461660 0.547866
vt 0.533117 0.613647
vt 0.533746 0.660216
vt 0.473749 0.657010
vt 0.465958 0.609395
vt 0.457201 0.359914
vt 0.460830 0.407757
vt 0.395842 0.418778
vt 0.398584 0.373368
vt 0.460830 0.407757
vt 0.459944 0.477582
vt 0.394991 0.478169
vt 0.395842 0.418778
vt 0.459944 0.477582
vt 0.461660 0.547866
vt 0.398414 0.545354
vt 0.394991 0.478169
vt 0.461660 0.547866
vt 0.465958 0.609395
vt 0.408792 0.603414
vt 0.398414 0.545354
vt 0.465958 0.609395
vt 0.473749 0.657010
vt 0.423308 0.648844
vt 0.408792 0.603414
vt 0.398584 0.373368
vt 0.395842 0.418778
vt 0.353013 0.432918
vt 0.358109 0.389005
vt 0.395842 0.418778
vt 0.394991 0.478169
vt 0.345976 0.487209
vt 0.353013 0.432918
vt 0.394991 0.478169
vt 0.398414 0.545354
vt 0.352335 0.547625
vt 0.345976 0.487209
vt 0.398414 0.545354
vt 0.408792 0.603414
vt 0.365805 0.600896
vt 0.352335 0.547625
vt 0.408792 0.603414
vt 0.423308 0.648844
vt 0.377604 0.637302
vt 0.365805 0.600896
vt 0.370310 0.932159
vt 0.366265 0.891157
vt 0.409188 0.903718
vt 0.413490 0.948764
vt 0.366265 0.891157
vt 0.358882 0.839347
vt 0.400806 0.848450
vt 0.409188 0.903718
vt 0.358882 0.839347
vt 0.357435 0.781623
vt 0.406579 0.784708
vt 0.400806 0.848450
vt 0.357435 0.781623
vt 0.369615 0.729588
vt 0.415653 0.723890
vt 0.406579 0.784708
vt 0.369615 0.729588
vt 0.386686 0.683434
vt 0.427961 0.675458
vt 0.415653 0.723890
vt 0.413490 0.948764
vt 0.409188 0.903718
vt 0.465396 0.915592
vt 0.469292 0.964275
vt 0.409188 0.903718
vt 0.400806 0.848450
vt 0.459543 0.851598
vt 0.465396 0.915592
vt 0.400806 0.848450
vt 0.406579 0.784708
vt 0.468556 0.781710
vt 0.459543 0.851598
vt 0.406579 0.784708
vt 0.415653 0.723890
vt 0.475723 0.719612
vt 0.468556 0.781710
vt 0.415653 0.723890
vt 0.427961 0.675458
vt 0.481664 0.675095
vt 0.475723 0.719612
vt 0.469292 0.964275
vt 0.465396 0.915592
vt 0.531174 0.915609
vt 0.529309 0.962710
vt 0.465396 0.915592
vt 0.459543 0.851598
vt 0.531357 0.852000
vt 0.531174 0.915609
vt 0.459543 0.851598
vt 0.468556 0.781710
vt 0.539645 0.780792
vt 0.531357 0.852000
vt 0.468556 0.781710
vt 0.475723 0.719612
vt 0.541236 0.719324
vt 0.539645 0.780792
vt 0.475723 0.719612
vt 0.481664 0.675095
vt 0.539487 0.676995
vt 0.541236 0.719324
vt 0.529309 0.962710
vt 0.531174 0.915609
vt 0.591258 0.909671
vt 0.580603 0.955226
vt 0.531174 0.915609
vt 0.531357 0.852000
vt 0.597209 0.850206
vt 0.591258 0.909671
vt 0.531357 0.852000
vt 0.539645 0.780792
vt 0.602804 0.784379
vt 0.597209 0.850206
vt 0.539645 0.780792
vt 0.541236 0.719324
vt 0.597988 0.727502
vt 0.602804 0.784379
vt 0.541236 0.719324
vt 0.539487 0.676995
vt 0.595896 0.679783
vt 0.597988 0.727502
vt 0.580603 0.955226
vt 0.591258 0.909671
vt 0.639480 0.906474
vt 0.626088 0.943467
vt 0.591258 0.909671
vt 0.597209 0.850206
vt 0.648179 0.852482
vt 0.639480 0.906474
vt 0.597209 0.850206
vt 0.602804 0.784379
vt 0.648054 0.792571
vt 0.648179 0.852482
vt 0.602804 0.784379
vt 0.597988 0.727502
vt 0.641174 0.741690
vt 0.648054 0.792571
vt 0.597988 0.727502
vt 0.595896 0.679783
vt 0.638624 0.696636
vt 0.641174 0.741690
vt 0.389128 0.050030
vt 0.432460 0.036286
vt 0.426469 0.083041
vt 0.379840 0.090809
vt 0.432460 0.036286
vt 0.491889 0.025000
vt 0.485255 0.074368
vt 0.426469 0.083041
vt 0.491889 0.025000
vt 0.554902 0.025129
vt 0.554156 0.075836
vt 0.485255 0.074368
vt 0.554902 0.025129
vt 0.614004 0.042435
vt 0.616552 0.091654
vt 0.554156 0.075836
vt 0.614004 0.042435
vt 0.650787 0.061196
vt 0.659628 0.103469
vt 0.616552 0.091654
vt 0.379840 0.090809
vt 0.426469 0.083041
vt 0.416329 0.141997
vt 0.366790 0.141601
vt 0.426469 0.083041
vt 0.485255 0.074368
vt 0.482475 0.140331
vt 0.416329 0.141997
vt 0.485255 0.074368
vt 0.554156 0.075836
vt 0.554734 0.146314
vt 0.482475 0.140331
vt 0.554156 0.075836
vt 0.616552 0.091654
vt 0.617757 0.153210
vt 0.554734 0.146314
vt 0.616552 0.091654
vt 0.659628 0.103469
vt 0.666179 0.158315
vt 0.617757 0.153210
vt 0.366790 0.141601
vt 0.416329 0.141997
vt 0.410810 0.207480
vt 0.362422 0.198558
vt 0.416329 0.141997
vt 0.482475 0.140331
vt 0.476482 0.213259
vt 0.410810 0.207480
vt 0.482475 0.140331
vt 0.554734 0.146314
vt 0.550482 0.215777
vt 0.476482 0.213259
vt 0.554734 0.146314
vt 0.617757 0.153210
vt 0.610648 0.218204
vt 0.550482 0.215777
vt 0.617757 0.153210
vt 0.666179 0.158315
vt 0.662933 0.219019
vt 0.610648 0.218204
vt 0.362422 0.198558
vt 0.410810 0.207480
vt 0.419160 0.270821
vt 0.372017 0.258350
vt 0.410810 0.207480
vt 0.476482 0.213259
vt 0.480541 0.277239
vt 0.419160 0.270821
vt 0.476482 0.213259
vt 0.550482 0.215777
vt 0.548716 0.277578
vt 0.480541 0.277239
vt 0.550482 0.215777
vt 0.610648 0.218204
vt 0.608003 0.275109
vt 0.548716 0.277578
vt 0.610648 0.218204
vt 0.662933 0.219019
vt 0.658941 0.273209
vt 0.608003 0.275109
vt 0.372017 0.258350
vt 0.419160 0.270821
vt 0.427243 0.319855
vt 0.381399 0.306140
vt 0.419160 0.270821
vt 0.480541 0.277239
vt 0.484835 0.326951
vt 0.427243 0.319855
vt 0.480541 0.277239
vt 0.548716 0.277578
vt 0.544405 0.327142
vt 0.484835 0.326951
vt 0.548716 0.277578
vt 0.608003 0.275109
vt 0.600975 0.326756
vt 0.544405 0.327142
vt 0.608003 0.275109
vt 0.658941 0.273209
vt 0.648909 0.318173
vt 0.600975 0.326756
# num_uvs: 600

g rockLP001
s 1

usemtl skin
f 1/1/1 2/2/2 3/3/3 4/4/4
f 4/5/4 3/6/3 5/7/5 6/8/6
f 6/9/6 5/10/5 7/11/7 8/12/8
f 8/13/8 7/14/7 9/15/9 10/16/10
f 10/17/10 9/18/9 11/19/11 12/20/12
f 2/21/2 13/22/13 14/23/14 3/24/3
f 3/25/3 14/26/14 15/27/15 5/28/5
f 5/29/5 15/30/15 16/31/16 7/32/7
f 7/33/7 16/34/16 17/35/17 9/36/9
f 9/37/9 17/38/17 18/39/18 11/40/11
f 13/41/13 19/42/19 20/43/20 14/44/14
f 14/45/14 20/46/20 21/47/21 15/48/15
f 15/49/15 21/50/21 22/51/22 16/52/16
f 16/53/16 22/54/22 23/55/23 17/56/17
f 17/57/17 23/58/23 24/59/24 18/60/18
f 19/61/19 25/62/25 26/63/26 20/64/20
f 20/65/20 26/66/26 27/67/27 21/68/21
f 21/69/21 27/70/27 28/71/28 22/72/22
f 22/73/22 28/74/28 29/75/29 23/76/23
f 23/77/23 29/78/29 30/79/30 24/80/24
f 25/81/25 31/82/31 32/83/32 26/84/26
f 26/85/26 32/86/32 33/87/33 27/88/27
f 27/89/27 33/90/33 34/91/34 28/92/28
f 28/93/28 34/94/34 35/95/35 29/96/29
f 29/97/29 35/98/35 36/99/36 30/100/30
f 37/101/37 38/102/38 39/103/39 40/104/40
f 38/105/38 41/106/41 42/107/42 39/108/39
f 41/109/41 43/110/43 44/111/44 42/112/42
f 43/113/43 45/114/45 46/115/46 44/116/44
f 45/117/45 47/118/47 48/119/48 46/120/46
f 40/121/40 39/122/39 49/123/49 50/124/50
f 39/125/39 42/126/42 51/127/51 49/128/49
f 42/129/42 44/130/44 52/131/52 51/132/51
f 44/133/44 46/134/46 53/135/53 52/136/52
f 46/137/46 48/138/48 54/139/54 53/140/53
f 50/141/50 49/142/49 55/143/55 56/144/56
f 49/145/49 51/146/51 57/147/57 55/148/55
f 51/149/51 52/150/52 58/151/58 57/152/57
f 52/153/52 53/154/53 59/155/59 58/156/58
f 53/157/53 54/158/54 60/159/60 59/160/59
f 56/161/56 55/162/55 61/163/61 62/164/62
f 55/165/55 57/166/57 63/167/63 61/168/61
f 57/169/57 58/170/58 64/171/64 63/172/63
f 58/173/58 59/174/59 65/175/65 64/176/64
f 59/177/59 60/178/60 66/179/66 65/180/65
f 62/181/62 61/182/61 67/183/67 68/184/68
f 61/185/61 63/186/63 69/187/69 67/188/67
f 63/189/63 64/190/64 70/191/70 69/192/69
f 64/193/64 65/194/65 71/195/71 70/196/70
f 65/197/65 66/198/66 72/199/72 71/200/71
f 1/201/1 4/202/4 73/203/73 74/204/74
f 4/205/4 6/206/6 75/207/75 73/208/73
f 6/209/6 8/210/8 76/211/76 75/212/75
f 8/213/8 10/214/10 77/215/77 76/216/76
f 10/217/10 12/218/12 78/219/78 77/220/77
f 74/221/74 73/222/73 79/223/79 80/224/80
f 73/225/73 75/226/75 81/227/81 79/228/79
f 75/229/75 76/230/76 82/231/82 81/232/81
f 76/233/76 77/234/77 83/235/83 82/236/82
f 77/237/77 78/238/78 84/239/84 83/240/83
f 80/241/80 79/242/79 85/243/85 86/244/86
f 79/245/79 81/246/81 87/247/87 85/248/85
f 81/249/81 82/250/82 88/251/88 87/252/87
f 82/253/82 83/254/83 89/255/89 88/256/88
f 83/257/83 84/258/84 90/259/90 89/260/89
f 86/261/86 85/262/85 91/263/91 92/264/92
f 85/265/85 87/266/87 93/267/93 91/268/91
f 87/269/87 88/270/88 94/271/94 93/272/93
f 88/273/88 89/274/89 95/275/95 94/276/94
f 89/277/89 90/278/90 96/279/96 95/280/95
f 92/281/92 91/282/91 38/283/38 37/284/37
f 91/285/91 93/286/93 41/287/41 38/288/38
f 93/289/93 94/290/94 43/291/43 41/292/41
f 94/293/94 95/294/95 45/295/45 43/296/43
f 95/297/95 96/298/96 47/299/47 45/300/45
f 12/301/12 11/302/11 97/303/97 78/304/78
f 11/305/11 18/306/18 98/307/98 97/308/97
f 18/309/18 24/310/24 99/311/99 98/312/98
f 24/313/24 30/314/30 100/315/100 99/316/99
f 30/317/30 36/318/36 101/319/101 100/320/100
f 78/321/78 97/322/97 102/323/102 84/324/84
f 97/325/97 98/326/98 103/327/103 102/328/102
f 98/329/98 99/330/99 104/331/104 103/332/103
f 99/333/99 100/334/100 105/335/105 104/336/104
f 100/337/100 101/338/101 106/339/106 105/340/105
f 84/341/84 102/342/102 107/343/107 90/344/90
f 102/345/102 103/346/103 108/347/108 107/348/107
f 103/349/103 104/350/104 109/351/109 108/352/108
f 104/353/104 105/354/105 110/355/110 109/356/109
f 105/357/105 106/358/106 111/359/111 110/360/110
f 90/361/90 107/362/107 112/363/112 96/364/96
f 107/365/107 108/366/108 113/367/113 112/368/112
f 108/369/108 109/370/109 114/371/114 113/372/113
f 109/373/109 110/374/110 115/375/115 114/376/114
f 110/377/110 111/378/111 116/379/116 115/380/115
f 96/381/96 112/382/112 48/383/48 47/384/47
f 112/385/112 113/386/113 54/387/54 48/388/48
f 113/389/113 114/390/114 60/391/60 54/392/54
f 114/393/114 115/394/115 66/395/66 60/396/60
f 115/397/115 116/398/116 72/399/72 66/400/66
f 36/401/36 35/402/35 117/403/117 101/404/101
f 35/405/35 34/406/34 118/407/118 117/408/117
f 34/409/34 33/410/33 119/411/119 118/412/118
f 33/413/33 32/414/32 120/415/120 119/416/119
f 32/417/32 31/418/31 121/419/121 120/420/120
f 101/421/101 117/422/117 122/423/122 106/424/106
f 117/425/117 118/426/118 123/427/123 122/428/122
f 118/429/118 119/430/119 124/431/124 123/432/123
f 119/433/119 120/434/120 125/435/125 124/436/124
f 120/437/120 121/438/121 126/439/126 125/440/125
f 106/441/106 122/442/122 127/443/127 111/444/111
f 122/445/122 123/446/123 128/447/128 127/448/127
f 123/449/123 124/450/124 129/451/129 128/452/128
f 124/453/124 125/454/125 130/455/130 129/456/129
f 125/457/125 126/458/126 131/459/131 130/460/130
f 111/461/111 127/462/127 132/463/132 116/464/116
f 127/465/127 128/466/128 133/467/133 132/468/132
f 128/469/128 129/470/129 134/471/134 133/472/133
f 129/473/129 130/474/130 135/475/135 134/476/134
f 130/477/130 131/478/131 136/479/136 135/480/135
f 116/481/116 132/482/132 71/483/71 72/484/72
f 132/485/132 133/486/133 70/487/70 71/488/71
f 133/489/133 134/490/134 69/491/69 70/492/70
f 134/493/134 135/494/135 67/495/67 69/496/69
f 135/497/135 136/498/136 68/499/68 67/500/67
f 31/501/31 25/502/25 137/503/137 121/504/121
f 25/505/25 19/506/19 138/507/138 137/508/137
f 19/509/19 13/510/13 139/511/139 138/512/138
f 13/513/13 2/514/2 140/515/140 139/516/139
f 2/517/2 1/518/1 74/519/74 140/520/140
f 121/521/121 137/522/137 141/523/141 126/524/126
f 137/525/137 138/526/138 142/527/142 141/528/141
f 138/529/138 139/530/139 143/531/143 142/532/142
f 139/533/139 140/534/140 144/535/144 143/536/143
f 140/537/140 74/538/74 80/539/80 144/540/144
f 126/541/126 141/542/141 145/543/145 131/544/131
f 141/545/141 142/546/142 146/547/146 145/548/145
f 142/549/142 143/550/143 147/551/147 146/552/146
f 143/553/143 144/554/144 148/555/148 147/556/147
f 144/557/144 80/558/80 86/559/86 148/560/148
f 131/561/131 145/562/145 149/563/149 136/564/136
f 145/565/145 146/566/146 150/567/150 149/568/149
f 146/569/146 147/570/147 151/571/151 150/572/150
f 147/573/147 148/574/148 152/575/152 151/576/151
f 148/577/148 86/578/86 92/579/92 152/580/152
f 136/581/136 149/582/149 62/583/62 68/584/68
f 149/585/149 150/586/150 56/587/56 62/588/62
f 150/589/150 151/590/151 50/591/50 56/592/56
f 151/593/151 152/594/152 40/595/40 50/596/50
f 152/597/152 92/598/92 37/599/37 40/600/40
# num_faces: 150

