# Wavefront OBJ file
# Creator: Ultimate Unwrap3D Pro v3.33
# Website: http://www.unwrap3d.com
# Time: Sun Apr 06 01:23:09 2014
# num_vertices: 152
# num_vertex_normals: 152
# num_uvs: 600
# num_faces: 150
# num_groups: 1

mtllib rock3.mtl

v -1.185658 -1.185321 -0.118746
v -1.313571 -0.810813 -0.267291
v -0.934863 -0.933843 -0.521003
v -0.809466 -1.315151 -0.298548
v -0.345133 -0.986949 -0.651770
v -0.313140 -1.386282 -0.350697
v 0.318422 -0.969921 -0.605102
v 0.237157 -1.356613 -0.312057
v 0.871374 -0.871218 -0.473379
v 0.730836 -1.284778 -0.241825
v 1.267256 -0.757959 -0.252056
v 1.106148 -1.132326 -0.108228
v -1.384996 -0.307128 -0.421280
v -0.988981 -0.342419 -0.714864
v -0.370133 -0.369796 -0.905721
v 0.392061 -0.338090 -0.881705
v 1.021635 -0.327584 -0.654627
v 1.384083 -0.256592 -0.370355
v -1.394073 0.245669 -0.439226
v -0.987919 0.337000 -0.732287
v -0.338687 0.392030 -0.899493
v 0.420799 0.421192 -0.906225
v 1.033599 0.341646 -0.662837
v 1.399069 0.296604 -0.382108
v -1.280175 0.732536 -0.313826
v -0.873477 0.886602 -0.528495
v -0.327164 1.014474 -0.731924
v 0.335824 1.050968 -0.786557
v 0.927011 0.927011 -0.500595
v 1.297261 0.797699 -0.302355
v -1.124063 1.098622 -0.169581
v -0.763573 1.273960 -0.345242
v -0.261965 1.397605 -0.473948
v 0.296406 1.431107 -0.497310
v 0.792768 1.302394 -0.353745
v 1.149300 1.149300 -0.181251
v -1.225920 -1.225072 2.185684
v -0.858097 -1.337844 2.282855
v -0.974549 -0.973017 2.540558
v -1.336793 -0.859851 2.304131
v -0.365898 -1.469233 2.422268
v -0.392415 -1.102092 2.689856
v 0.188834 -1.454674 2.435056
v 0.276753 -1.105216 2.729369
v 0.682148 -1.336394 2.321109
v 0.854634 -0.956215 2.545616
v 1.067232 -1.181407 2.181782
v 1.232456 -0.819025 2.320071
v -1.103652 -0.389119 2.645107
v -1.464670 -0.365238 2.329275
v -0.497751 -0.497565 2.915570
v 0.260392 -0.481067 2.910613
v 0.902738 -0.407384 2.691608
v 1.295370 -0.322061 2.405750
v -1.112638 0.281275 2.636991
v -1.457319 0.185762 2.348572
v -0.489240 0.269329 2.941465
v 0.275187 0.275525 2.891725
v 0.901844 0.263634 2.679584
v 1.309947 0.232873 2.392546
v -0.952936 0.854931 2.467667
v -1.343713 0.678056 2.252086
v -0.397078 0.904191 2.607699
v 0.268197 0.914091 2.586973
v 0.847777 0.847778 2.497824
v 1.229050 0.734521 2.282677
v -0.813011 1.240333 2.255657
v -1.203978 1.093880 2.118006
v -0.317005 1.299323 2.323575
v 0.237018 1.306858 2.286131
v 0.732155 1.215131 2.234398
v 1.100960 1.101252 2.097043
v -0.972058 -1.561475 0.114305
v -1.332621 -1.331763 0.266961
v -0.408658 -1.658616 0.045822
v 0.259867 -1.661299 0.070393
v 0.850377 -1.500200 0.118531
v 1.256813 -1.288172 0.268689
v -0.994607 -1.706264 0.690841
v -1.426395 -1.424542 0.770542
v -0.408262 -1.973148 0.676952
v 0.354402 -1.929441 0.659895
v 1.000559 -1.672191 0.703829
v 1.366627 -1.385358 0.767937
v -1.050188 -1.737814 1.360772
v -1.420866 -1.419792 1.324828
v -0.434818 -1.988412 1.439198
v 0.331379 -1.994424 1.424289
v 0.968510 -1.742424 1.366473
v 1.358662 -1.445984 1.310939
v -1.027212 -1.594734 1.947461
v -1.373992 -1.373992 1.807970
v -0.453529 -1.748120 2.059992
v 0.218982 -1.731276 2.064985
v 0.794020 -1.560245 1.929295
v 1.185241 -1.328431 1.799877
v 1.467010 -0.918985 0.128510
v 1.671714 -0.360387 0.016745
v 1.701434 0.322263 -0.055007
v 1.506335 0.891538 0.105087
v 1.288878 1.288920 0.160866
v 1.656162 -1.008869 0.739188
v 1.827481 -0.398393 0.653227
v 1.869833 0.355599 0.587755
v 1.652451 1.001266 0.669049
v 1.381308 1.381690 0.657884
v 1.626163 -1.014068 1.406625
v 1.821323 -0.371491 1.407725
v 1.812448 0.388766 1.345428
v 1.586467 0.975480 1.333361
v 1.328426 1.328657 1.207151
v 1.446070 -0.938832 1.956546
v 1.622246 -0.344727 2.040486
v 1.621617 0.329280 1.978562
v 1.446830 0.873395 1.906996
v 1.230712 1.231036 1.712804
v 0.893774 1.524855 0.000773
v 0.323609 1.701203 -0.098126
v -0.352922 1.673713 -0.067194
v -0.944663 1.492003 0.025293
v -1.273119 1.239916 0.205059
v 0.991741 1.665983 0.596753
v 0.358804 1.921121 0.563658
v -0.418952 1.890626 0.531476
v -1.008759 1.612179 0.616984
v -1.381754 1.353914 0.698113
v 0.968318 1.586851 1.252109
v 0.386499 1.824660 1.328747
v -0.374236 1.839239 1.308842
v -1.031594 1.633300 1.283370
v -1.434365 1.355583 1.249862
v 0.874779 1.437973 1.815024
v 0.324711 1.624822 1.918479
v -0.348468 1.600607 1.943427
v -0.936361 1.456923 1.859102
v -1.367646 1.221343 1.761837
v -1.498720 0.839203 0.096164
v -1.664285 0.258946 -0.031274
v -1.693126 -0.410271 -0.060143
v -1.557436 -0.971361 0.132136
v -1.675559 0.996073 0.681927
v -1.916469 0.350340 0.593060
v -1.948715 -0.408810 0.604611
v -1.749005 -1.021940 0.708524
v -1.752109 0.978035 1.353029
v -1.979562 0.327752 1.351311
v -1.963334 -0.431758 1.362711
v -1.696008 -1.024911 1.378472
v -1.568941 0.792831 1.898171
v -1.722513 0.216288 1.962699
v -1.736444 -0.449759 1.962688
v -1.568798 -1.011011 1.945217
# num_vertices: 152

vn -0.559982 -0.565792 -0.605227
vn -0.616517 -0.386214 -0.686109
vn -0.384350 -0.417986 -0.823142
vn -0.343039 -0.661834 -0.666558
vn -0.059472 -0.466106 -0.882728
vn -0.042877 -0.712218 -0.700648
vn 0.162091 -0.506304 -0.846984
vn 0.143763 -0.709429 -0.689959
vn 0.375645 -0.501383 -0.779427
vn 0.340461 -0.660962 -0.668742
vn 0.636019 -0.445697 -0.629948
vn 0.560513 -0.581241 -0.589902
vn -0.689984 -0.172899 -0.702872
vn -0.443138 -0.178274 -0.878548
vn -0.108683 -0.184308 -0.976841
vn 0.186615 -0.212300 -0.959220
vn 0.456505 -0.224916 -0.860823
vn 0.700415 -0.195311 -0.686493
vn -0.729406 0.149208 -0.667611
vn -0.454772 0.168908 -0.874444
vn -0.139560 0.160701 -0.977086
vn 0.189116 0.114470 -0.975260
vn 0.498202 0.120672 -0.858623
vn 0.692553 0.129004 -0.709738
vn -0.677504 0.416520 -0.606217
vn -0.458614 0.429035 -0.778205
vn -0.199150 0.431939 -0.879641
vn 0.189076 0.425688 -0.884895
vn 0.502420 0.399351 -0.766872
vn 0.652075 0.380969 -0.655485
vn -0.616714 0.521552 -0.589616
vn -0.467763 0.578446 -0.668280
vn -0.232814 0.673610 -0.701461
vn 0.166410 0.707629 -0.686709
vn 0.475961 0.623144 -0.620607
vn 0.610717 0.550127 -0.569548
vn -0.521865 -0.533105 0.665925
vn -0.413520 -0.588493 0.694750
vn -0.402745 -0.362164 0.840615
vn -0.579225 -0.348555 0.736891
vn -0.168960 -0.681090 0.712438
vn -0.183277 -0.460836 0.868355
vn 0.174335 -0.708374 0.683969
vn 0.157491 -0.481145 0.862378
vn 0.428410 -0.663100 0.613811
vn 0.438160 -0.453592 0.776061
vn 0.565305 -0.622711 0.540981
vn 0.633718 -0.457198 0.623997
vn -0.492411 -0.110055 0.863377
vn -0.713498 -0.110032 0.691964
vn -0.191362 -0.158220 0.968683
vn 0.160537 -0.161491 0.973729
vn 0.464093 -0.121809 0.877371
vn 0.682505 -0.125092 0.720097
vn -0.546621 0.163476 0.821268
vn -0.739721 0.141653 0.657835
vn -0.197157 0.208109 0.958029
vn 0.176824 0.222157 0.958843
vn 0.454785 0.189704 0.870163
vn 0.664924 0.173262 0.726537
vn -0.481905 0.408579 0.775133
vn -0.686323 0.371654 0.625167
vn -0.149251 0.494863 0.856058
vn 0.140957 0.520569 0.842104
vn 0.403439 0.490478 0.772443
vn 0.600299 0.467600 0.648839
vn -0.407730 0.611121 0.678445
vn -0.602567 0.541516 0.586237
vn -0.128934 0.666139 0.734599
vn 0.143551 0.692379 0.707110
vn 0.411774 0.688531 0.596965
vn 0.539567 0.653575 0.530761
vn -0.371064 -0.842479 -0.390565
vn -0.636515 -0.652539 -0.411148
vn -0.069213 -0.886895 -0.456756
vn 0.142472 -0.844146 -0.516836
vn 0.375452 -0.778797 -0.502504
vn 0.639626 -0.635535 -0.432405
vn -0.445999 -0.883455 -0.143502
vn -0.684985 -0.718061 -0.123222
vn -0.139209 -0.969136 -0.203461
vn 0.184157 -0.950676 -0.249602
vn 0.461463 -0.855418 -0.235183
vn 0.696171 -0.691809 -0.191693
vn -0.508411 -0.857700 0.076602
vn -0.702541 -0.704468 0.100807
vn -0.195607 -0.972036 0.129935
vn 0.207666 -0.961865 0.178017
vn 0.507191 -0.842625 0.180944
vn 0.708863 -0.682204 0.179195
vn -0.508283 -0.764754 0.395980
vn -0.674777 -0.642139 0.363776
vn -0.178974 -0.854955 0.486847
vn 0.188973 -0.844735 0.500711
vn 0.471761 -0.736068 0.485433
vn 0.638100 -0.628881 0.444227
vn 0.796329 -0.440710 -0.414289
vn 0.875471 -0.203611 -0.438283
vn 0.877017 0.136702 -0.460602
vn 0.802236 0.406215 -0.437502
vn 0.677585 0.621172 -0.393732
vn 0.871558 -0.463866 -0.158790
vn 0.971556 -0.196916 -0.131544
vn 0.983131 0.146159 -0.109960
vn 0.887133 0.450074 -0.102120
vn 0.717825 0.691163 -0.083788
vn 0.879276 -0.439257 0.184190
vn 0.974317 -0.142592 0.174282
vn 0.971467 0.164255 0.171089
vn 0.858158 0.476553 0.190950
vn 0.679699 0.706051 0.198749
vn 0.781659 -0.443761 0.438275
vn 0.869926 -0.125014 0.477075
vn 0.852841 0.195472 0.484203
vn 0.741926 0.495002 0.452238
vn 0.605820 0.695658 0.386059
vn 0.455246 0.793577 -0.403717
vn 0.144244 0.886012 -0.440655
vn -0.199385 0.865842 -0.458871
vn -0.487540 0.746411 -0.452963
vn -0.701521 0.585250 -0.406633
vn 0.470952 0.879572 -0.067512
vn 0.155457 0.984083 -0.086105
vn -0.217832 0.968753 -0.118601
vn -0.508535 0.850128 -0.136654
vn -0.711991 0.683432 -0.161211
vn 0.483168 0.851047 0.205591
vn 0.186124 0.956933 0.222794
vn -0.189986 0.955666 0.224962
vn -0.469940 0.863762 0.181858
vn -0.665368 0.736747 0.120369
vn 0.476041 0.791549 0.383190
vn 0.196751 0.862976 0.465361
vn -0.142483 0.856419 0.496231
vn -0.410458 0.786172 0.462015
vn -0.625058 0.662702 0.412467
vn -0.807197 0.421945 -0.412789
vn -0.873333 0.170536 -0.456297
vn -0.853129 -0.155513 -0.497983
vn -0.762356 -0.428096 -0.485333
vn -0.857157 0.470771 -0.208939
vn -0.951623 0.200448 -0.232881
vn -0.966722 -0.140701 -0.213665
vn -0.866239 -0.474477 -0.156530
vn -0.850592 0.510243 0.127063
vn -0.970976 0.180144 0.157332
vn -0.972530 -0.174292 0.154300
vn -0.864895 -0.482693 0.137713
vn -0.779235 0.441653 0.444675
vn -0.859900 0.146263 0.489059
vn -0.861559 -0.159490 0.481954
vn -0.773231 -0.450878 0.445896
# num_vertex_normals: 152

vt 0.305938 0.633106
vt 0.263088 0.643697
vt 0.268232 0.596055
vt 0.313796 0.587936
vt 0.313796 0.587936
vt 0.268232 0.596055
vt 0.272865 0.535266
vt 0.322729 0.533836
vt 0.322729 0.533836
vt 0.272865 0.535266
vt 0.272917 0.468377
vt 0.321981 0.473209
vt 0.321981 0.473209
vt 0.272917 0.468377
vt 0.264355 0.410778
vt 0.313782 0.419231
vt 0.313782 0.419231
vt 0.264355 0.410778
vt 0.257817 0.363563
vt 0.301082 0.376177
vt 0.263088 0.643697
vt 0.206089 0.649732
vt 0.206467 0.600381
vt 0.268232 0.596055
vt 0.268232 0.596055
vt 0.206467 0.600381
vt 0.208437 0.537894
vt 0.272865 0.535266
vt 0.272865 0.535266
vt 0.208437 0.537894
vt 0.205612 0.464779
vt 0.272917 0.468377
vt 0.272917 0.468377
vt 0.205612 0.464779
vt 0.206333 0.400004
vt 0.264355 0.410778
vt 0.264355 0.410778
vt 0.206333 0.400004
vt 0.202161 0.353932
vt 0.257817 0.363563
vt 0.206089 0.649732
vt 0.145464 0.650342
vt 0.139372 0.600274
vt 0.206467 0.600381
vt 0.206467 0.600381
vt 0.139372 0.600274
vt 0.135244 0.535511
vt 0.208437 0.537894
vt 0.208437 0.537894
vt 0.135244 0.535511
vt 0.132759 0.462589
vt 0.205612 0.464779
vt 0.205612 0.464779
vt 0.132759 0.462589
vt 0.139978 0.399105
vt 0.206333 0.400004
vt 0.206333 0.400004
vt 0.139978 0.399105
vt 0.142471 0.353311
vt 0.202161 0.353932
vt 0.145464 0.650342
vt 0.090551 0.642156
vt 0.080155 0.594006
vt 0.139372 0.600274
vt 0.139372 0.600274
vt 0.080155 0.594006
vt 0.072789 0.535628
vt 0.135244 0.535511
vt 0.135244 0.535511
vt 0.072789 0.535628
vt 0.071719 0.471052
vt 0.132759 0.462589
vt 0.132759 0.462589
vt 0.071719 0.471052
vt 0.078427 0.405530
vt 0.139978 0.399105
vt 0.139978 0.399105
vt 0.078427 0.405530
vt 0.088319 0.362165
vt 0.142471 0.353311
vt 0.090551 0.642156
vt 0.047862 0.630122
vt 0.035702 0.586429
vt 0.080155 0.594006
vt 0.080155 0.594006
vt 0.035702 0.586429
vt 0.026329 0.531227
vt 0.072789 0.535628
vt 0.072789 0.535628
vt 0.026329 0.531227
vt 0.025000 0.471022
vt 0.071719 0.471052
vt 0.071719 0.471052
vt 0.025000 0.471022
vt 0.036229 0.415488
vt 0.078427 0.405530
vt 0.078427 0.405530
vt 0.036229 0.415488
vt 0.048099 0.373166
vt 0.088319 0.362165
vt 0.302068 0.048493
vt 0.313710 0.088152
vt 0.267401 0.084242
vt 0.261241 0.039689
vt 0.313710 0.088152
vt 0.324190 0.143646
vt 0.279080 0.144435
vt 0.267401 0.084242
vt 0.324190 0.143646
vt 0.323531 0.203893
vt 0.278118 0.210451
vt 0.279080 0.144435
vt 0.323531 0.203893
vt 0.314021 0.259036
vt 0.267268 0.271036
vt 0.278118 0.210451
vt 0.314021 0.259036
vt 0.301712 0.303016
vt 0.259355 0.316758
vt 0.267268 0.271036
vt 0.261241 0.039689
vt 0.267401 0.084242
vt 0.208012 0.072638
vt 0.208121 0.025000
vt 0.267401 0.084242
vt 0.279080 0.144435
vt 0.217193 0.136467
vt 0.208012 0.072638
vt 0.279080 0.144435
vt 0.278118 0.210451
vt 0.215921 0.208621
vt 0.217193 0.136467
vt 0.278118 0.210451
vt 0.267268 0.271036
vt 0.210219 0.274228
vt 0.215921 0.208621
vt 0.267268 0.271036
vt 0.259355 0.316758
vt 0.204358 0.322933
vt 0.210219 0.274228
vt 0.208121 0.025000
vt 0.208012 0.072638
vt 0.141266 0.071834
vt 0.148079 0.026915
vt 0.208012 0.072638
vt 0.217193 0.136467
vt 0.145171 0.137678
vt 0.141266 0.071834
vt 0.217193 0.136467
vt 0.215921 0.208621
vt 0.143439 0.210165
vt 0.145171 0.137678
vt 0.215921 0.208621
vt 0.210219 0.274228
vt 0.143236 0.274075
vt 0.143439 0.210165
vt 0.210219 0.274228
vt 0.204358 0.322933
vt 0.143287 0.324080
vt 0.143236 0.274075
vt 0.148079 0.026915
vt 0.141266 0.071834
vt 0.080735 0.084640
vt 0.093877 0.037444
vt 0.141266 0.071834
vt 0.145171 0.137678
vt 0.076430 0.142853
vt 0.080735 0.084640
vt 0.145171 0.137678
vt 0.143439 0.210165
vt 0.074633 0.210327
vt 0.076430 0.142853
vt 0.143439 0.210165
vt 0.143236 0.274075
vt 0.082298 0.269319
vt 0.074633 0.210327
vt 0.143236 0.274075
vt 0.143287 0.324080
vt 0.087506 0.314883
vt 0.082298 0.269319
vt 0.093877 0.037444
vt 0.080735 0.084640
vt 0.034945 0.093411
vt 0.047632 0.048903
vt 0.080735 0.084640
vt 0.076430 0.142853
vt 0.027671 0.148010
vt 0.034945 0.093411
vt 0.076430 0.142853
vt 0.074633 0.210327
vt 0.025000 0.209030
vt 0.027671 0.148010
vt 0.074633 0.210327
vt 0.082298 0.269319
vt 0.035668 0.262982
vt 0.025000 0.209030
vt 0.082298 0.269319
vt 0.087506 0.314883
vt 0.043388 0.305350
vt 0.035668 0.262982
vt 0.684206 0.049886
vt 0.727050 0.033374
vt 0.718261 0.083822
vt 0.673720 0.094748
vt 0.727050 0.033374
vt 0.781050 0.025273
vt 0.775142 0.074004
vt 0.718261 0.083822
vt 0.781050 0.025273
vt 0.841341 0.025000
vt 0.842550 0.073699
vt 0.775142 0.074004
vt 0.841341 0.025000
vt 0.895502 0.030989
vt 0.904264 0.074262
vt 0.842550 0.073699
vt 0.895502 0.030989
vt 0.939480 0.039218
vt 0.952645 0.082336
vt 0.904264 0.074262
vt 0.673720 0.094748
vt 0.718261 0.083822
vt 0.718674 0.142954
vt 0.666850 0.150739
vt 0.718261 0.083822
vt 0.775142 0.074004
vt 0.780458 0.141523
vt 0.718674 0.142954
vt 0.775142 0.074004
vt 0.842550 0.073699
vt 0.852833 0.135778
vt 0.780458 0.141523
vt 0.842550 0.073699
vt 0.904264 0.074262
vt 0.919932 0.135138
vt 0.852833 0.135778
vt 0.904264 0.074262
vt 0.952645 0.082336
vt 0.966469 0.135876
vt 0.919932 0.135138
vt 0.666850 0.150739
vt 0.718674 0.142954
vt 0.717990 0.210217
vt 0.669438 0.211535
vt 0.718674 0.142954
vt 0.780458 0.141523
vt 0.782013 0.213607
vt 0.717990 0.210217
vt 0.780458 0.141523
vt 0.852833 0.135778
vt 0.854006 0.208568
vt 0.782013 0.213607
vt 0.852833 0.135778
vt 0.919932 0.135138
vt 0.918775 0.201275
vt 0.854006 0.208568
vt 0.919932 0.135138
vt 0.966469 0.135876
vt 0.967026 0.195422
vt 0.918775 0.201275
vt 0.669438 0.211535
vt 0.717990 0.210217
vt 0.722834 0.270111
vt 0.679786 0.264048
vt 0.717990 0.210217
vt 0.782013 0.213607
vt 0.782396 0.277154
vt 0.722834 0.270111
vt 0.782013 0.213607
vt 0.854006 0.208568
vt 0.849259 0.275677
vt 0.782396 0.277154
vt 0.854006 0.208568
vt 0.918775 0.201275
vt 0.909516 0.262179
vt 0.849259 0.275677
vt 0.918775 0.201275
vt 0.967026 0.195422
vt 0.956505 0.251968
vt 0.909516 0.262179
vt 0.679786 0.264048
vt 0.722834 0.270111
vt 0.734552 0.314408
vt 0.693826 0.307237
vt 0.722834 0.270111
vt 0.782396 0.277154
vt 0.790896 0.322492
vt 0.734552 0.314408
vt 0.782396 0.277154
vt 0.849259 0.275677
vt 0.851454 0.321467
vt 0.790896 0.322492
vt 0.849259 0.275677
vt 0.909516 0.262179
vt 0.906141 0.309189
vt 0.851454 0.321467
vt 0.909516 0.262179
vt 0.956505 0.251968
vt 0.950076 0.296142
vt 0.906141 0.309189
vt 0.625861 0.371744
vt 0.638031 0.415306
vt 0.592300 0.405780
vt 0.581485 0.361687
vt 0.638031 0.415306
vt 0.649621 0.470899
vt 0.600779 0.465230
vt 0.592300 0.405780
vt 0.649621 0.470899
vt 0.651289 0.531562
vt 0.607777 0.532203
vt 0.600779 0.465230
vt 0.651289 0.531562
vt 0.644215 0.586730
vt 0.597038 0.593002
vt 0.607777 0.532203
vt 0.644215 0.586730
vt 0.636237 0.627634
vt 0.596590 0.639255
vt 0.597038 0.593002
vt 0.581485 0.361687
vt 0.592300 0.405780
vt 0.527742 0.403357
vt 0.525980 0.356262
vt 0.592300 0.405780
vt 0.600779 0.465230
vt 0.536936 0.464287
vt 0.527742 0.403357
vt 0.600779 0.465230
vt 0.607777 0.532203
vt 0.544280 0.536669
vt 0.536936 0.464287
vt 0.607777 0.532203
vt 0.597038 0.593002
vt 0.538540 0.603006
vt 0.544280 0.536669
vt 0.597038 0.593002
vt 0.596590 0.639255
vt 0.542464 0.649333
vt 0.538540 0.603006
vt 0.525980 0.356262
vt 0.527742 0.403357
vt 0.461723 0.404895
vt 0.466893 0.353311
vt 0.527742 0.403357
vt 0.536936 0.464287
vt 0.464363 0.470319
vt 0.461723 0.404895
vt 0.536936 0.464287
vt 0.544280 0.536669
vt 0.471798 0.543958
vt 0.464363 0.470319
vt 0.544280 0.536669
vt 0.538540 0.603006
vt 0.472010 0.605189
vt 0.471798 0.543958
vt 0.538540 0.603006
vt 0.542464 0.649333
vt 0.482589 0.649340
vt 0.472010 0.605189
vt 0.466893 0.353311
vt 0.461723 0.404895
vt 0.404305 0.412631
vt 0.410759 0.363017
vt 0.461723 0.404895
vt 0.464363 0.470319
vt 0.400541 0.474602
vt 0.404305 0.412631
vt 0.464363 0.470319
vt 0.471798 0.543958
vt 0.407499 0.541008
vt 0.400541 0.474602
vt 0.471798 0.543958
vt 0.472010 0.605189
vt 0.412215 0.597881
vt 0.407499 0.541008
vt 0.472010 0.605189
vt 0.482589 0.649340
vt 0.426889 0.642134
vt 0.412215 0.597881
vt 0.410759 0.363017
vt 0.404305 0.412631
vt 0.360848 0.421193
vt 0.368904 0.377995
vt 0.404305 0.412631
vt 0.400541 0.474602
vt 0.351959 0.475126
vt 0.360848 0.421193
vt 0.400541 0.474602
vt 0.407499 0.541008
vt 0.355004 0.535540
vt 0.351959 0.475126
vt 0.407499 0.541008
vt 0.412215 0.597881
vt 0.366628 0.590419
vt 0.355004 0.535540
vt 0.412215 0.597881
vt 0.426889 0.642134
vt 0.383379 0.632372
vt 0.366628 0.590419
vt 0.046388 0.952869
vt 0.034542 0.910161
vt 0.077637 0.916275
vt 0.086324 0.964728
vt 0.034542 0.910161
vt 0.025000 0.854195
vt 0.072766 0.856646
vt 0.077637 0.916275
vt 0.025000 0.854195
vt 0.027727 0.793991
vt 0.077372 0.790012
vt 0.072766 0.856646
vt 0.027727 0.793991
vt 0.040674 0.738498
vt 0.086721 0.728996
vt 0.077372 0.790012
vt 0.040674 0.738498
vt 0.055397 0.695114
vt 0.099448 0.685665
vt 0.086721 0.728996
vt 0.086324 0.964728
vt 0.077637 0.916275
vt 0.138793 0.926875
vt 0.141161 0.975000
vt 0.077637 0.916275
vt 0.072766 0.856646
vt 0.139525 0.861657
vt 0.138793 0.926875
vt 0.072766 0.856646
vt 0.077372 0.790012
vt 0.138515 0.788001
vt 0.139525 0.861657
vt 0.077372 0.790012
vt 0.086721 0.728996
vt 0.147185 0.725612
vt 0.138515 0.788001
vt 0.086721 0.728996
vt 0.099448 0.685665
vt 0.155053 0.680291
vt 0.147185 0.725612
vt 0.141161 0.975000
vt 0.138793 0.926875
vt 0.204703 0.929958
vt 0.201393 0.974344
vt 0.138793 0.926875
vt 0.139525 0.861657
vt 0.212616 0.868767
vt 0.204703 0.929958
vt 0.139525 0.861657
vt 0.138515 0.788001
vt 0.212671 0.795131
vt 0.212616 0.868767
vt 0.138515 0.788001
vt 0.147185 0.725612
vt 0.213532 0.728325
vt 0.212671 0.795131
vt 0.147185 0.725612
vt 0.155053 0.680291
vt 0.214828 0.679572
vt 0.213532 0.728325
vt 0.201393 0.974344
vt 0.204703 0.929958
vt 0.263815 0.924377
vt 0.256705 0.966815
vt 0.204703 0.929958
vt 0.212616 0.868767
vt 0.272462 0.866064
vt 0.263815 0.924377
vt 0.212616 0.868767
vt 0.212671 0.795131
vt 0.278269 0.799139
vt 0.272462 0.866064
vt 0.212671 0.795131
vt 0.213532 0.728325
vt 0.273545 0.738049
vt 0.278269 0.799139
vt 0.213532 0.728325
vt 0.214828 0.679572
vt 0.270942 0.687221
vt 0.273545 0.738049
vt 0.256705 0.966815
vt 0.263815 0.924377
vt 0.313691 0.916826
vt 0.300048 0.957577
vt 0.263815 0.924377
vt 0.272462 0.866064
vt 0.321231 0.862414
vt 0.313691 0.916826
vt 0.272462 0.866064
vt 0.278269 0.799139
vt 0.326694 0.801630
vt 0.321231 0.862414
vt 0.278269 0.799139
vt 0.273545 0.738049
vt 0.320026 0.747693
vt 0.326694 0.801630
vt 0.273545 0.738049
vt 0.270942 0.687221
vt 0.310980 0.702628
vt 0.320026 0.747693
vt 0.375499 0.047215
vt 0.418248 0.036715
vt 0.412268 0.084704
vt 0.364598 0.090178
vt 0.418248 0.036715
vt 0.471905 0.025637
vt 0.473240 0.074464
vt 0.412268 0.084704
vt 0.471905 0.025637
vt 0.531748 0.025000
vt 0.539760 0.072111
vt 0.473240 0.074464
vt 0.531748 0.025000
vt 0.587282 0.038609
vt 0.598563 0.087492
vt 0.539760 0.072111
vt 0.587282 0.038609
vt 0.630094 0.049798
vt 0.643119 0.094214
vt 0.598563 0.087492
vt 0.364598 0.090178
vt 0.412268 0.084704
vt 0.399287 0.146511
vt 0.353420 0.143990
vt 0.412268 0.084704
vt 0.473240 0.074464
vt 0.466152 0.139762
vt 0.399287 0.146511
vt 0.473240 0.074464
vt 0.539760 0.072111
vt 0.538738 0.140396
vt 0.466152 0.139762
vt 0.539760 0.072111
vt 0.598563 0.087492
vt 0.600781 0.148252
vt 0.538738 0.140396
vt 0.598563 0.087492
vt 0.643119 0.094214
vt 0.652234 0.150623
vt 0.600781 0.148252
vt 0.353420 0.143990
vt 0.399287 0.146511
vt 0.402676 0.212999
vt 0.353879 0.204425
vt 0.399287 0.146511
vt 0.466152 0.139762
vt 0.468160 0.212187
vt 0.402676 0.212999
vt 0.466152 0.139762
vt 0.538738 0.140396
vt 0.540077 0.212808
vt 0.468160 0.212187
vt 0.538738 0.140396
vt 0.600781 0.148252
vt 0.602829 0.215197
vt 0.540077 0.212808
vt 0.600781 0.148252
vt 0.652234 0.150623
vt 0.651420 0.211505
vt 0.602829 0.215197
vt 0.353879 0.204425
vt 0.402676 0.212999
vt 0.415323 0.271436
vt 0.366306 0.260523
vt 0.402676 0.212999
vt 0.468160 0.212187
vt 0.475890 0.276400
vt 0.415323 0.271436
vt 0.468160 0.212187
vt 0.540077 0.212808
vt 0.542745 0.274708
vt 0.475890 0.276400
vt 0.540077 0.212808
vt 0.602829 0.215197
vt 0.601034 0.273134
vt 0.542745 0.274708
vt 0.602829 0.215197
vt 0.651420 0.211505
vt 0.643837 0.263424
vt 0.601034 0.273134
vt 0.366306 0.260523
vt 0.415323 0.271436
vt 0.420782 0.315070
vt 0.374073 0.302961
vt 0.415323 0.271436
vt 0.475890 0.276400
vt 0.476022 0.323052
vt 0.420782 0.315070
vt 0.475890 0.276400
vt 0.542745 0.274708
vt 0.536598 0.320761
vt 0.476022 0.323052
vt 0.542745 0.274708
vt 0.601034 0.273134
vt 0.591931 0.318091
vt 0.536598 0.320761
vt 0.601034 0.273134
vt 0.643837 0.263424
vt 0.632199 0.306973
vt 0.591931 0.318091
# num_uvs: 600

g rockLP001
s 1

usemtl skin
f 1/1/1 2/2/2 3/3/3 4/4/4
f 4/5/4 3/6/3 5/7/5 6/8/6
f 6/9/6 5/10/5 7/11/7 8/12/8
f 8/13/8 7/14/7 9/15/9 10/16/10
f 10/17/10 9/18/9 11/19/11 12/20/12
f 2/21/2 13/22/13 14/23/14 3/24/3
f 3/25/3 14/26/14 15/27/15 5/28/5
f 5/29/5 15/30/15 16/31/16 7/32/7
f 7/33/7 16/34/16 17/35/17 9/36/9
f 9/37/9 17/38/17 18/39/18 11/40/11
f 13/41/13 19/42/19 20/43/20 14/44/14
f 14/45/14 20/46/20 21/47/21 15/48/15
f 15/49/15 21/50/21 22/51/22 16/52/16
f 16/53/16 22/54/22 23/55/23 17/56/17
f 17/57/17 23/58/23 24/59/24 18/60/18
f 19/61/19 25/62/25 26/63/26 20/64/20
f 20/65/20 26/66/26 27/67/27 21/68/21
f 21/69/21 27/70/27 28/71/28 22/72/22
f 22/73/22 28/74/28 29/75/29 23/76/23
f 23/77/23 29/78/29 30/79/30 24/80/24
f 25/81/25 31/82/31 32/83/32 26/84/26
f 26/85/26 32/86/32 33/87/33 27/88/27
f 27/89/27 33/90/33 34/91/34 28/92/28
f 28/93/28 34/94/34 35/95/35 29/96/29
f 29/97/29 35/98/35 36/99/36 30/100/30
f 37/101/37 38/102/38 39/103/39 40/104/40
f 38/105/38 41/106/41 42/107/42 39/108/39
f 41/109/41 43/110/43 44/111/44 42/112/42
f 43/113/43 45/114/45 46/115/46 44/116/44
f 45/117/45 47/118/47 48/119/48 46/120/46
f 40/121/40 39/122/39 49/123/49 50/124/50
f 39/125/39 42/126/42 51/127/51 49/128/49
f 42/129/42 44/130/44 52/131/52 51/132/51
f 44/133/44 46/134/46 53/135/53 52/136/52
f 46/137/46 48/138/48 54/139/54 53/140/53
f 50/141/50 49/142/49 55/143/55 56/144/56
f 49/145/49 51/146/51 57/147/57 55/148/55
f 51/149/51 52/150/52 58/151/58 57/152/57
f 52/153/52 53/154/53 59/155/59 58/156/58
f 53/157/53 54/158/54 60/159/60 59/160/59
f 56/161/56 55/162/55 61/163/61 62/164/62
f 55/165/55 57/166/57 63/167/63 61/168/61
f 57/169/57 58/170/58 64/171/64 63/172/63
f 58/173/58 59/174/59 65/175/65 64/176/64
f 59/177/59 60/178/60 66/179/66 65/180/65
f 62/181/62 61/182/61 67/183/67 68/184/68
f 61/185/61 63/186/63 69/187/69 67/188/67
f 63/189/63 64/190/64 70/191/70 69/192/69
f 64/193/64 65/194/65 71/195/71 70/196/70
f 65/197/65 66/198/66 72/199/72 71/200/71
f 1/201/1 4/202/4 73/203/73 74/204/74
f 4/205/4 6/206/6 75/207/75 73/208/73
f 6/209/6 8/210/8 76/211/76 75/212/75
f 8/213/8 10/214/10 77/215/77 76/216/76
f 10/217/10 12/218/12 78/219/78 77/220/77
f 74/221/74 73/222/73 79/223/79 80/224/80
f 73/225/73 75/226/75 81/227/81 79/228/79
f 75/229/75 76/230/76 82/231/82 81/232/81
f 76/233/76 77/234/77 83/235/83 82/236/82
f 77/237/77 78/238/78 84/239/84 83/240/83
f 80/241/80 79/242/79 85/243/85 86/244/86
f 79/245/79 81/246/81 87/247/87 85/248/85
f 81/249/81 82/250/82 88/251/88 87/252/87
f 82/253/82 83/254/83 89/255/89 88/256/88
f 83/257/83 84/258/84 90/259/90 89/260/89
f 86/261/86 85/262/85 91/263/91 92/264/92
f 85/265/85 87/266/87 93/267/93 91/268/91
f 87/269/87 88/270/88 94/271/94 93/272/93
f 88/273/88 89/274/89 95/275/95 94/276/94
f 89/277/89 90/278/90 96/279/96 95/280/95
f 92/281/92 91/282/91 38/283/38 37/284/37
f 91/285/91 93/286/93 41/287/41 38/288/38
f 93/289/93 94/290/94 43/291/43 41/292/41
f 94/293/94 95/294/95 45/295/45 43/296/43
f 95/297/95 96/298/96 47/299/47 45/300/45
f 12/301/12 11/302/11 97/303/97 78/304/78
f 11/305/11 18/306/18 98/307/98 97/308/97
f 18/309/18 24/310/24 99/311/99 98/312/98
f 24/313/24 30/314/30 100/315/100 99/316/99
f 30/317/30 36/318/36 101/319/101 100/320/100
f 78/321/78 97/322/97 102/323/102 84/324/84
f 97/325/97 98/326/98 103/327/103 102/328/102
f 98/329/98 99/330/99 104/331/104 103/332/103
f 99/333/99 100/334/100 105/335/105 104/336/104
f 100/337/100 101/338/101 106/339/106 105/340/105
f 84/341/84 102/342/102 107/343/107 90/344/90
f 102/345/102 103/346/103 108/347/108 107/348/107
f 103/349/103 104/350/104 109/351/109 108/352/108
f 104/353/104 105/354/105 110/355/110 109/356/109
f 105/357/105 106/358/106 111/359/111 110/360/110
f 90/361/90 107/362/107 112/363/112 96/364/96
f 107/365/107 108/366/108 113/367/113 112/368/112
f 108/369/108 109/370/109 114/371/114 113/372/113
f 109/373/109 110/374/110 115/375/115 114/376/114
f 110/377/110 111/378/111 116/379/116 115/380/115
f 96/381/96 112/382/112 48/383/48 47/384/47
f 112/385/112 113/386/113 54/387/54 48/388/48
f 113/389/113 114/390/114 60/391/60 54/392/54
f 114/393/114 115/394/115 66/395/66 60/396/60
f 115/397/115 116/398/116 72/399/72 66/400/66
f 36/401/36 35/402/35 117/403/117 101/404/101
f 35/405/35 34/406/34 118/407/118 117/408/117
f 34/409/34 33/410/33 119/411/119 118/412/118
f 33/413/33 32/414/32 120/415/120 119/416/119
f 32/417/32 31/418/31 121/419/121 120/420/120
f 101/421/101 117/422/117 122/423/122 106/424/106
f 117/425/117 118/426/118 123/427/123 122/428/122
f 118/429/118 119/430/119 124/431/124 123/432/123
f 119/433/119 120/434/120 125/435/125 124/436/124
f 120/437/120 121/438/121 126/439/126 125/440/125
f 106/441/106 122/442/122 127/443/127 111/444/111
f 122/445/122 123/446/123 128/447/128 127/448/127
f 123/449/123 124/450/124 129/451/129 128/452/128
f 124/453/124 125/454/125 130/455/130 129/456/129
f 125/457/125 126/458/126 131/459/131 130/460/130
f 111/461/111 127/462/127 132/463/132 116/464/116
f 127/465/127 128/466/128 133/467/133 132/468/132
f 128/469/128 129/470/129 134/471/134 133/472/133
f 129/473/129 130/474/130 135/475/135 134/476/134
f 130/477/130 131/478/131 136/479/136 135/480/135
f 116/481/116 132/482/132 71/483/71 72/484/72
f 132/485/132 133/486/133 70/487/70 71/488/71
f 133/489/133 134/490/134 69/491/69 70/492/70
f 134/493/134 135/494/135 67/495/67 69/496/69
f 135/497/135 136/498/136 68/499/68 67/500/67
f 31/501/31 25/502/25 137/503/137 121/504/121
f 25/505/25 19/506/19 138/507/138 137/508/137
f 19/509/19 13/510/13 139/511/139 138/512/138
f 13/513/13 2/514/2 140/515/140 139/516/139
f 2/517/2 1/518/1 74/519/74 140/520/140
f 121/521/121 137/522/137 141/523/141 126/524/126
f 137/525/137 138/526/138 142/527/142 141/528/141
f 138/529/138 139/530/139 143/531/143 142/532/142
f 139/533/139 140/534/140 144/535/144 143/536/143
f 140/537/140 74/538/74 80/539/80 144/540/144
f 126/541/126 141/542/141 145/543/145 131/544/131
f 141/545/141 142/546/142 146/547/146 145/548/145
f 142/549/142 143/550/143 147/551/147 146/552/146
f 143/553/143 144/554/144 148/555/148 147/556/147
f 144/557/144 80/558/80 86/559/86 148/560/148
f 131/561/131 145/562/145 149/563/149 136/564/136
f 145/565/145 146/566/146 150/567/150 149/568/149
f 146/569/146 147/570/147 151/571/151 150/572/150
f 147/573/147 148/574/148 152/575/152 151/576/151
f 148/577/148 86/578/86 92/579/92 152/580/152
f 136/581/136 149/582/149 62/583/62 68/584/68
f 149/585/149 150/586/150 56/587/56 62/588/62
f 150/589/150 151/590/151 50/591/50 56/592/56
f 151/593/151 152/594/152 40/595/40 50/596/50
f 152/597/152 92/598/92 37/599/37 40/600/40
# num_faces: 150

